examples/chisel-examples/vcd-traces/vcd/Memory_from_verilator.vcd
$version Generated by VerilatedVcd $end
$date Tue 30 Jan 2024 09:19:46 CET $end
$timescale 1ps $end

 $scope module TOP $end
  $var wire  1 3 clock $end
  $var wire  4 6 io_addrIn [3:0] $end
  $var wire 32 7 io_dataIn [31:0] $end
  $var wire 32 8 io_dataOut [31:0] $end
  $var wire  1 5 io_writeEn $end
  $var wire  1 4 reset $end
  $scope module Memory $end
   $var wire  1 3 clock $end
   $var wire  4 6 io_addrIn [3:0] $end
   $var wire 32 7 io_dataIn [31:0] $end
   $var wire 32 8 io_dataOut [31:0] $end
   $var wire  1 5 io_writeEn $end
   $var wire 32 # mem[0] [31:0] $end
   $var wire 32 - mem[10] [31:0] $end
   $var wire 32 . mem[11] [31:0] $end
   $var wire 32 / mem[12] [31:0] $end
   $var wire 32 0 mem[13] [31:0] $end
   $var wire 32 1 mem[14] [31:0] $end
   $var wire 32 2 mem[15] [31:0] $end
   $var wire 32 $ mem[1] [31:0] $end
   $var wire 32 % mem[2] [31:0] $end
   $var wire 32 & mem[3] [31:0] $end
   $var wire 32 ' mem[4] [31:0] $end
   $var wire 32 ( mem[5] [31:0] $end
   $var wire 32 ) mem[6] [31:0] $end
   $var wire 32 * mem[7] [31:0] $end
   $var wire 32 + mem[8] [31:0] $end
   $var wire 32 , mem[9] [31:0] $end
   $var wire  4 6 mem_MPORT_addr [3:0] $end
   $var wire 32 7 mem_MPORT_data [31:0] $end
   $var wire  1 5 mem_MPORT_en $end
   $var wire  1 ; mem_MPORT_mask $end
   $var wire  4 6 mem_io_dataOut_MPORT_addr [3:0] $end
   $var wire 32 : mem_io_dataOut_MPORT_data [31:0] $end
   $var wire  1 9 mem_io_dataOut_MPORT_en $end
   $var wire  1 4 reset $end
  $upscope $end
 $upscope $end
$enddefinitions $end


#0
b00000000000000000000000000000000 #
b00000000000000000000000000000000 $
b00000000000000000000000000000000 %
b00000000000000000000000000000000 &
b00000000000000000000000000000000 '
b00000000000000000000000000000000 (
b00000000000000000000000000000000 )
b00000000000000000000000000000000 *
b00000000000000000000000000000000 +
b00000000000000000000000000000000 ,
b00000000000000000000000000000000 -
b00000000000000000000000000000000 .
b00000000000000000000000000000000 /
b00000000000000000000000000000000 0
b00000000000000000000000000000000 1
b00000000000000000000000000000000 2
03
14
05
b0000 6
b00000000000000000000000000000000 7
b00000000000000000000000000000000 8
19
b00000000000000000000000000000000 :
1;
#1
13
#2
03
#3
13
#4
03
#5
13
#6
03
#7
13
#8
03
#9
13
#10
03
04
15
b0001 6
09
#11
13
#12
03
05
b0000 6
19
#13
13
#14
03
15
b0010 6
b00000000000000000000000000000001 7
09
#15
b00000000000000000000000000000001 %
13
b00000000000000000000000000000001 8
b00000000000000000000000000000001 :
#16
03
05
b0001 6
b00000000000000000000000000000000 8
19
b00000000000000000000000000000000 :
#17
13
#18
03
15
b0011 6
b00000000000000000000000000000010 7
09
#19
b00000000000000000000000000000010 &
13
b00000000000000000000000000000010 8
b00000000000000000000000000000010 :
#20
03
05
b0010 6
b00000000000000000000000000000001 8
19
b00000000000000000000000000000001 :
#21
13
#22
03
15
b0100 6
b00000000000000000000000000000011 7
b00000000000000000000000000000000 8
09
b00000000000000000000000000000000 :
#23
b00000000000000000000000000000011 '
13
b00000000000000000000000000000011 8
b00000000000000000000000000000011 :
#24
03
05
b0011 6
b00000000000000000000000000000010 8
19
b00000000000000000000000000000010 :
#25
13
#26
03
15
b0101 6
b00000000000000000000000000000100 7
b00000000000000000000000000000000 8
09
b00000000000000000000000000000000 :
#27
b00000000000000000000000000000100 (
13
b00000000000000000000000000000100 8
b00000000000000000000000000000100 :
#28
03
05
b0100 6
b00000000000000000000000000000011 8
19
b00000000000000000000000000000011 :
#29
13
#30
03
15
b0110 6
b00000000000000000000000000000101 7
b00000000000000000000000000000000 8
09
b00000000000000000000000000000000 :
#31
b00000000000000000000000000000101 )
13
b00000000000000000000000000000101 8
b00000000000000000000000000000101 :
#32
03
05
b0101 6
b00000000000000000000000000000100 8
19
b00000000000000000000000000000100 :
#33
13
#34
03
15
b0111 6
b00000000000000000000000000000110 7
b00000000000000000000000000000000 8
09
b00000000000000000000000000000000 :
#35
b00000000000000000000000000000110 *
13
b00000000000000000000000000000110 8
b00000000000000000000000000000110 :
#36
03
05
b0110 6
b00000000000000000000000000000101 8
19
b00000000000000000000000000000101 :
#37
13
#38
03
15
b1000 6
b00000000000000000000000000000111 7
b00000000000000000000000000000000 8
09
b00000000000000000000000000000000 :
#39
b00000000000000000000000000000111 +
13
b00000000000000000000000000000111 8
b00000000000000000000000000000111 :
#40
03
05
b0111 6
b00000000000000000000000000000110 8
19
b00000000000000000000000000000110 :
#41
13
#42
03
15
b1001 6
b00000000000000000000000000001000 7
b00000000000000000000000000000000 8
09
b00000000000000000000000000000000 :
#43
b00000000000000000000000000001000 ,
13
b00000000000000000000000000001000 8
b00000000000000000000000000001000 :
#44
03
05
b1000 6
b00000000000000000000000000000111 8
19
b00000000000000000000000000000111 :
#45
13
#46
03
15
b1010 6
b00000000000000000000000000001001 7
b00000000000000000000000000000000 8
09
b00000000000000000000000000000000 :
#47
b00000000000000000000000000001001 -
13
b00000000000000000000000000001001 8
b00000000000000000000000000001001 :
#48
03
05
b1001 6
b00000000000000000000000000001000 8
19
b00000000000000000000000000001000 :
#49
13
#50
03
15
b1011 6
b00000000000000000000000000001010 7
b00000000000000000000000000000000 8
09
b00000000000000000000000000000000 :
#51
b00000000000000000000000000001010 .
13
b00000000000000000000000000001010 8
b00000000000000000000000000001010 :
#52
03
05
b1010 6
b00000000000000000000000000001001 8
19
b00000000000000000000000000001001 :
#53
13
#54
03
15
b1100 6
b00000000000000000000000000001011 7
b00000000000000000000000000000000 8
09
b00000000000000000000000000000000 :
#55
b00000000000000000000000000001011 /
13
b00000000000000000000000000001011 8
b00000000000000000000000000001011 :
#56
03
05
b1011 6
b00000000000000000000000000001010 8
19
b00000000000000000000000000001010 :
#57
13
#58
03
15
b1101 6
b00000000000000000000000000001100 7
b00000000000000000000000000000000 8
09
b00000000000000000000000000000000 :
#59
b00000000000000000000000000001100 0
13
b00000000000000000000000000001100 8
b00000000000000000000000000001100 :
#60
03
05
b1100 6
b00000000000000000000000000001011 8
19
b00000000000000000000000000001011 :
#61
13
#62
03
15
b1110 6
b00000000000000000000000000001101 7
b00000000000000000000000000000000 8
09
b00000000000000000000000000000000 :
#63
b00000000000000000000000000001101 1
13
b00000000000000000000000000001101 8
b00000000000000000000000000001101 :
#64
03
05
b1101 6
b00000000000000000000000000001100 8
19
b00000000000000000000000000001100 :
#65
13
#66
03
15
b1111 6
b00000000000000000000000000001110 7
b00000000000000000000000000000000 8
09
b00000000000000000000000000000000 :
#67
b00000000000000000000000000001110 2
13
b00000000000000000000000000001110 8
b00000000000000000000000000001110 :
#68
03
05
b1110 6
b00000000000000000000000000001101 8
19
b00000000000000000000000000001101 :
#69
13
#70
03
15
b0000 6
b00000000000000000000000000001111 7
b00000000000000000000000000000000 8
09
b00000000000000000000000000000000 :
#71
b00000000000000000000000000001111 #
13
b00000000000000000000000000001111 8
b00000000000000000000000000001111 :
#72
03
05
b1111 6
b00000000000000000000000000001110 8
19
b00000000000000000000000000001110 :
