examples/chisel-examples/vcd-traces/vcd/Router_from_verilator.vcd
$version Generated by VerilatedVcd $end
$date Tue 30 Jan 2024 09:19:55 CET $end
$timescale 1ps $end

 $scope module TOP $end
  $var wire  1 3 clock $end
  $var wire 64 B io_in_bits_body [63:0] $end
  $var wire  8 A io_in_bits_header [7:0] $end
  $var wire  1 ? io_in_ready $end
  $var wire  1 @ io_in_valid $end
  $var wire 32 = io_load_routing_table_request_bits_addr [31:0] $end
  $var wire 32 > io_load_routing_table_request_bits_data [31:0] $end
  $var wire  1 ; io_load_routing_table_request_ready $end
  $var wire  1 < io_load_routing_table_request_valid $end
  $var wire 64 G io_outs_0_bits_body [63:0] $end
  $var wire  8 F io_outs_0_bits_header [7:0] $end
  $var wire  1 D io_outs_0_ready $end
  $var wire  1 E io_outs_0_valid $end
  $var wire 64 L io_outs_1_bits_body [63:0] $end
  $var wire  8 K io_outs_1_bits_header [7:0] $end
  $var wire  1 I io_outs_1_ready $end
  $var wire  1 J io_outs_1_valid $end
  $var wire 64 Q io_outs_2_bits_body [63:0] $end
  $var wire  8 P io_outs_2_bits_header [7:0] $end
  $var wire  1 N io_outs_2_ready $end
  $var wire  1 O io_outs_2_valid $end
  $var wire 64 V io_outs_3_bits_body [63:0] $end
  $var wire  8 U io_outs_3_bits_header [7:0] $end
  $var wire  1 S io_outs_3_ready $end
  $var wire  1 T io_outs_3_valid $end
  $var wire 32 7 io_read_routing_table_request_bits_addr [31:0] $end
  $var wire  1 5 io_read_routing_table_request_ready $end
  $var wire  1 6 io_read_routing_table_request_valid $end
  $var wire 32 : io_read_routing_table_response_bits [31:0] $end
  $var wire  1 8 io_read_routing_table_response_ready $end
  $var wire  1 9 io_read_routing_table_response_valid $end
  $var wire  1 4 reset $end
  $scope module Router $end
   $var wire  1 3 clock $end
   $var wire 64 B io_in_bits_body [63:0] $end
   $var wire  8 A io_in_bits_header [7:0] $end
   $var wire  1 ? io_in_ready $end
   $var wire  1 @ io_in_valid $end
   $var wire 32 = io_load_routing_table_request_bits_addr [31:0] $end
   $var wire 32 > io_load_routing_table_request_bits_data [31:0] $end
   $var wire  1 ; io_load_routing_table_request_ready $end
   $var wire  1 < io_load_routing_table_request_valid $end
   $var wire 64 G io_outs_0_bits_body [63:0] $end
   $var wire  8 F io_outs_0_bits_header [7:0] $end
   $var wire  1 D io_outs_0_ready $end
   $var wire  1 E io_outs_0_valid $end
   $var wire 64 L io_outs_1_bits_body [63:0] $end
   $var wire  8 K io_outs_1_bits_header [7:0] $end
   $var wire  1 I io_outs_1_ready $end
   $var wire  1 J io_outs_1_valid $end
   $var wire 64 Q io_outs_2_bits_body [63:0] $end
   $var wire  8 P io_outs_2_bits_header [7:0] $end
   $var wire  1 N io_outs_2_ready $end
   $var wire  1 O io_outs_2_valid $end
   $var wire 64 V io_outs_3_bits_body [63:0] $end
   $var wire  8 U io_outs_3_bits_header [7:0] $end
   $var wire  1 S io_outs_3_ready $end
   $var wire  1 T io_outs_3_valid $end
   $var wire 32 7 io_read_routing_table_request_bits_addr [31:0] $end
   $var wire  1 5 io_read_routing_table_request_ready $end
   $var wire  1 6 io_read_routing_table_request_valid $end
   $var wire 32 : io_read_routing_table_response_bits [31:0] $end
   $var wire  1 8 io_read_routing_table_response_ready $end
   $var wire  1 9 io_read_routing_table_response_valid $end
   $var wire  1 4 reset $end
   $var wire  3 # table_[0] [2:0] $end
   $var wire  3 - table_[10] [2:0] $end
   $var wire  3 . table_[11] [2:0] $end
   $var wire  3 / table_[12] [2:0] $end
   $var wire  3 0 table_[13] [2:0] $end
   $var wire  3 1 table_[14] [2:0] $end
   $var wire  3 2 table_[15] [2:0] $end
   $var wire  3 $ table_[1] [2:0] $end
   $var wire  3 % table_[2] [2:0] $end
   $var wire  3 & table_[3] [2:0] $end
   $var wire  3 ' table_[4] [2:0] $end
   $var wire  3 ( table_[5] [2:0] $end
   $var wire  3 ) table_[6] [2:0] $end
   $var wire  3 * table_[7] [2:0] $end
   $var wire  3 + table_[8] [2:0] $end
   $var wire  3 , table_[9] [2:0] $end
   $var wire  4 _ table__MPORT_1_addr [3:0] $end
   $var wire  3 ^ table__MPORT_1_data [2:0] $end
   $var wire  1 ` table__MPORT_1_en $end
   $var wire  1 a table__MPORT_1_mask $end
   $var wire  4 Y table__MPORT_addr [3:0] $end
   $var wire  3 Z table__MPORT_data [2:0] $end
   $var wire  1 X table__MPORT_en $end
   $var wire  4 \ table__idx_addr [3:0] $end
   $var wire  3 ] table__idx_data [2:0] $end
   $var wire  1 [ table__idx_en $end
  $upscope $end
 $upscope $end
$enddefinitions $end


#0
b000 #
b000 $
b000 %
b000 &
b000 '
b000 (
b000 )
b000 *
b000 +
b000 ,
b000 -
b000 .
b000 /
b000 0
b000 1
b000 2
03
14
05
06
b00000000000000000000000000000000 7
08
09
b00000000000000000000000000000000 :
0;
0<
b00000000000000000000000000000000 =
b00000000000000000000000000000000 >
0?
0@
b00000000 A
b0000000000000000000000000000000000000000000000000000000000000000 B
0D
0E
b00000000 F
b0000000000000000000000000000000000000000000000000000000000000000 G
0I
0J
b00000000 K
b0000000000000000000000000000000000000000000000000000000000000000 L
0N
0O
b00000000 P
b0000000000000000000000000000000000000000000000000000000000000000 Q
0S
0T
b00000000 U
b0000000000000000000000000000000000000000000000000000000000000000 V
0X
b0000 Y
b000 Z
0[
b0000 \
b000 ]
b000 ^
b0000 _
0`
1a
#1
13
#2
03
04
1;
1<
b00000000000000000000000000000001 >
b001 ^
1`
#3
b001 #
13
b001 Z
b001 ]
#4
03
15
16
18
19
b00000000000000000000000000000001 :
0;
0<
b00000000000000000000000000000000 >
1X
b000 ^
0`
#5
13
#6
03
05
06
09
b00000000000000000000000000000000 :
1;
1<
b00000000000000000000000000000001 =
b00000000000000000000000000000010 >
0X
b010 ^
b0001 _
1`
#7
b010 $
13
#8
03
15
16
b00000000000000000000000000000001 7
19
b00000000000000000000000000000010 :
0;
0<
b00000000000000000000000000000000 =
b00000000000000000000000000000000 >
1X
b0001 Y
b010 Z
b000 ^
b0000 _
0`
#9
13
#10
03
05
06
b00000000000000000000000000000000 7
09
b00000000000000000000000000000000 :
1;
1<
b00000000000000000000000000000010 =
b00000000000000000000000000000011 >
0X
b0000 Y
b001 Z
b011 ^
b0010 _
1`
#11
b011 %
13
#12
03
15
16
b00000000000000000000000000000010 7
19
b00000000000000000000000000000011 :
0;
0<
b00000000000000000000000000000000 =
b00000000000000000000000000000000 >
1X
b0010 Y
b011 Z
b000 ^
b0000 _
0`
#13
13
#14
03
05
06
b00000000000000000000000000000000 7
09
b00000000000000000000000000000000 :
1;
1<
b00000000000000000000000000000011 =
0X
b0000 Y
b001 Z
b0011 _
1`
#15
13
#16
03
15
16
b00000000000000000000000000000011 7
19
0;
0<
b00000000000000000000000000000000 =
1X
b0011 Y
b000 Z
b0000 _
0`
#17
13
#18
03
#19
13
#20
03
b00000000000000000000000000000010 7
b00000000000000000000000000000011 :
b0010 Y
b011 Z
#21
13
#22
03
b00000000000000000000000000000001 7
b00000000000000000000000000000010 :
b0001 Y
b010 Z
#23
13
#24
03
b00000000000000000000000000000000 7
b00000000000000000000000000000001 :
b0000 Y
b001 Z
#25
13
#26
03
05
06
09
b00000000000000000000000000000000 :
1?
1@
1D
1I
1J
1N
1S
0X
1[
#27
13
#28
03
b00000001 A
b0000000000000000000000000000000000000000000000000000000000000011 B
b00000001 F
b0000000000000000000000000000000000000000000000000000000000000011 G
0J
b00000001 K
b0000000000000000000000000000000000000000000000000000000000000011 L
1O
b00000001 P
b0000000000000000000000000000000000000000000000000000000000000011 Q
b00000001 U
b0000000000000000000000000000000000000000000000000000000000000011 V
b0001 \
b010 ]
#29
13
#30
03
b00000010 A
b0000000000000000000000000000000000000000000000000000000000000110 B
b00000010 F
b0000000000000000000000000000000000000000000000000000000000000110 G
b00000010 K
b0000000000000000000000000000000000000000000000000000000000000110 L
0O
b00000010 P
b0000000000000000000000000000000000000000000000000000000000000110 Q
1T
b00000010 U
b0000000000000000000000000000000000000000000000000000000000000110 V
b0010 \
b011 ]
#31
13
#32
03
b00000011 A
b0000000000000000000000000000000000000000000000000000000000001001 B
1E
b00000011 F
b0000000000000000000000000000000000000000000000000000000000001001 G
b00000011 K
b0000000000000000000000000000000000000000000000000000000000001001 L
b00000011 P
b0000000000000000000000000000000000000000000000000000000000001001 Q
0T
b00000011 U
b0000000000000000000000000000000000000000000000000000000000001001 V
b0011 \
b000 ]
#33
13
#34
03
1;
1<
0?
0@
b00000000 A
b0000000000000000000000000000000000000000000000000000000000000000 B
0E
b00000000 F
b0000000000000000000000000000000000000000000000000000000000000000 G
b00000000 K
b0000000000000000000000000000000000000000000000000000000000000000 L
b00000000 P
b0000000000000000000000000000000000000000000000000000000000000000 Q
b00000000 U
b0000000000000000000000000000000000000000000000000000000000000000 V
0[
b0000 \
b001 ]
1`
#35
b000 #
13
b000 Z
b000 ]
#36
03
b00000000000000000000000000000001 =
b00000000000000000000000000000011 >
b011 ^
b0001 _
#37
b011 $
13
#38
03
b00000000000000000000000000000010 =
b00000000000000000000000000000001 >
b001 ^
b0010 _
#39
b001 %
13
#40
03
b00000000000000000000000000000011 =
b00000000000000000000000000000000 >
b000 ^
b0011 _
#41
13
#42
03
b00000000000000000000000000000100 =
b00000000000000000000000000000011 >
b011 ^
b0100 _
#43
b011 '
13
#44
03
b00000000000000000000000000000101 =
b0101 _
#45
b011 (
13
#46
03
b00000000000000000000000000000110 =
b0110 _
#47
b011 )
13
#48
03
b00000000000000000000000000000111 =
b0111 _
#49
b011 *
13
#50
03
b00000000000000000000000000001000 =
b00000000000000000000000000000010 >
b010 ^
b1000 _
#51
b010 +
13
#52
03
b00000000000000000000000000001001 =
b00000000000000000000000000000000 >
b000 ^
b1001 _
#53
13
#54
03
b00000000000000000000000000001010 =
b1010 _
#55
13
#56
03
b00000000000000000000000000001011 =
b00000000000000000000000000000011 >
b011 ^
b1011 _
#57
b011 .
13
#58
03
b00000000000000000000000000001100 =
b00000000000000000000000000000000 >
b000 ^
b1100 _
#59
13
#60
03
b00000000000000000000000000001101 =
b00000000000000000000000000000011 >
b011 ^
b1101 _
#61
b011 0
13
#62
03
b00000000000000000000000000001110 =
b00000000000000000000000000000010 >
b010 ^
b1110 _
#63
b010 1
13
#64
03
b00000000000000000000000000001111 =
b00000000000000000000000000000001 >
b001 ^
b1111 _
#65
b001 2
13
#66
03
0;
0<
b00000000000000000000000000000000 =
b00000000000000000000000000000000 >
1?
1@
b0000000000000000000000000000000001011101100100000101101000110000 B
1E
b0000000000000000000000000000000001011101100100000101101000110000 G
b0000000000000000000000000000000001011101100100000101101000110000 L
b0000000000000000000000000000000001011101100100000101101000110000 Q
b0000000000000000000000000000000001011101100100000101101000110000 V
1[
b000 ^
b0000 _
0`
#67
13
#68
03
b00000001 A
b0000000000000000000000000000000001101010011011001010100010011100 B
0E
b00000001 F
b0000000000000000000000000000000001101010011011001010100010011100 G
b00000001 K
b0000000000000000000000000000000001101010011011001010100010011100 L
b00000001 P
b0000000000000000000000000000000001101010011011001010100010011100 Q
1T
b00000001 U
b0000000000000000000000000000000001101010011011001010100010011100 V
b0001 \
b011 ]
#69
13
#70
03
b00000010 A
b0000000000000000000000000000000000011110110010011110010110111101 B
b00000010 F
b0000000000000000000000000000000000011110110010011110010110111101 G
1J
b00000010 K
b0000000000000000000000000000000000011110110010011110010110111101 L
b00000010 P
b0000000000000000000000000000000000011110110010011110010110111101 Q
0T
b00000010 U
b0000000000000000000000000000000000011110110010011110010110111101 V
b0010 \
b001 ]
#71
13
#72
03
b00000011 A
b0000000000000000000000000000000001001101100111001011100001011111 B
1E
b00000011 F
b0000000000000000000000000000000001001101100111001011100001011111 G
0J
b00000011 K
b0000000000000000000000000000000001001101100111001011100001011111 L
b00000011 P
b0000000000000000000000000000000001001101100111001011100001011111 Q
b00000011 U
b0000000000000000000000000000000001001101100111001011100001011111 V
b0011 \
b000 ]
#73
13
#74
03
b00000100 A
b0000000000000000000000000000000001010001100101101110010011111011 B
0E
b00000100 F
b0000000000000000000000000000000001010001100101101110010011111011 G
b00000100 K
b0000000000000000000000000000000001010001100101101110010011111011 L
b00000100 P
b0000000000000000000000000000000001010001100101101110010011111011 Q
1T
b00000100 U
b0000000000000000000000000000000001010001100101101110010011111011 V
b0100 \
b011 ]
#75
13
#76
03
b00000101 A
b0000000000000000000000000000000000100111100011101111100000011101 B
b00000101 F
b0000000000000000000000000000000000100111100011101111100000011101 G
b00000101 K
b0000000000000000000000000000000000100111100011101111100000011101 L
b00000101 P
b0000000000000000000000000000000000100111100011101111100000011101 Q
b00000101 U
b0000000000000000000000000000000000100111100011101111100000011101 V
b0101 \
#77
13
#78
03
b00000110 A
b0000000000000000000000000000000001000110011101001011100001011011 B
b00000110 F
b0000000000000000000000000000000001000110011101001011100001011011 G
b00000110 K
b0000000000000000000000000000000001000110011101001011100001011011 L
b00000110 P
b0000000000000000000000000000000001000110011101001011100001011011 Q
b00000110 U
b0000000000000000000000000000000001000110011101001011100001011011 V
b0110 \
#79
13
#80
03
b00000111 A
b0000000000000000000000000000000000001110111110100001001010000001 B
b00000111 F
b0000000000000000000000000000000000001110111110100001001010000001 G
b00000111 K
b0000000000000000000000000000000000001110111110100001001010000001 L
b00000111 P
b0000000000000000000000000000000000001110111110100001001010000001 Q
b00000111 U
b0000000000000000000000000000000000001110111110100001001010000001 V
b0111 \
#81
13
#82
03
b00001000 A
b0000000000000000000000000000000001001100011111000101110100011111 B
b00001000 F
b0000000000000000000000000000000001001100011111000101110100011111 G
b00001000 K
b0000000000000000000000000000000001001100011111000101110100011111 L
1O
b00001000 P
b0000000000000000000000000000000001001100011111000101110100011111 Q
0T
b00001000 U
b0000000000000000000000000000000001001100011111000101110100011111 V
b1000 \
b010 ]
#83
13
#84
03
b00001001 A
b0000000000000000000000000000000001100100000010010101001110110110 B
1E
b00001001 F
b0000000000000000000000000000000001100100000010010101001110110110 G
b00001001 K
b0000000000000000000000000000000001100100000010010101001110110110 L
0O
b00001001 P
b0000000000000000000000000000000001100100000010010101001110110110 Q
b00001001 U
b0000000000000000000000000000000001100100000010010101001110110110 V
b1001 \
b000 ]
#85
13
#86
03
0?
0@
b00000000 A
b0000000000000000000000000000000000000000000000000000000000000000 B
0E
b00000000 F
b0000000000000000000000000000000000000000000000000000000000000000 G
b00000000 K
b0000000000000000000000000000000000000000000000000000000000000000 L
b00000000 P
b0000000000000000000000000000000000000000000000000000000000000000 Q
b00000000 U
b0000000000000000000000000000000000000000000000000000000000000000 V
0[
b0000 \
#87
13
#88
03
1;
1<
1`
#89
13
#90
03
15
16
19
0;
0<
1X
0`
#91
13
#92
03
05
06
09
1?
1@
1E
0X
1[
#93
13
#94
03
0?
0@
0E
0[
#95
13
#96
03
1;
1<
b00000000000000000000000000000001 =
b00000000000000000000000000000001 >
b001 ^
b0001 _
1`
#97
b001 $
13
#98
03
15
16
b00000000000000000000000000000001 7
19
b00000000000000000000000000000001 :
0;
0<
b00000000000000000000000000000000 =
b00000000000000000000000000000000 >
1X
b0001 Y
b001 Z
b000 ^
b0000 _
0`
#99
13
#100
03
05
06
b00000000000000000000000000000000 7
09
b00000000000000000000000000000000 :
1?
1@
b00000001 A
b0000000000000000000000000000000000000000000000000000000000000001 B
b00000001 F
b0000000000000000000000000000000000000000000000000000000000000001 G
1J
b00000001 K
b0000000000000000000000000000000000000000000000000000000000000001 L
b00000001 P
b0000000000000000000000000000000000000000000000000000000000000001 Q
b00000001 U
b0000000000000000000000000000000000000000000000000000000000000001 V
0X
b0000 Y
b000 Z
1[
b0001 \
b001 ]
#101
13
#102
03
0?
0@
b00000000 A
b0000000000000000000000000000000000000000000000000000000000000000 B
b00000000 F
b0000000000000000000000000000000000000000000000000000000000000000 G
0J
b00000000 K
b0000000000000000000000000000000000000000000000000000000000000000 L
b00000000 P
b0000000000000000000000000000000000000000000000000000000000000000 Q
b00000000 U
b0000000000000000000000000000000000000000000000000000000000000000 V
0[
b0000 \
b000 ]
#103
13
#104
03
1;
1<
b00000000000000000000000000000010 =
b00000000000000000000000000000010 >
b010 ^
b0010 _
1`
#105
b010 %
13
#106
03
15
16
b00000000000000000000000000000010 7
19
b00000000000000000000000000000010 :
0;
0<
b00000000000000000000000000000000 =
b00000000000000000000000000000000 >
1X
b0010 Y
b010 Z
b000 ^
b0000 _
0`
#107
13
#108
03
05
06
b00000000000000000000000000000000 7
09
b00000000000000000000000000000000 :
1?
1@
b00000010 A
b0000000000000000000000000000000000000000000000000000000000000010 B
b00000010 F
b0000000000000000000000000000000000000000000000000000000000000010 G
b00000010 K
b0000000000000000000000000000000000000000000000000000000000000010 L
1O
b00000010 P
b0000000000000000000000000000000000000000000000000000000000000010 Q
b00000010 U
b0000000000000000000000000000000000000000000000000000000000000010 V
0X
b0000 Y
b000 Z
1[
b0010 \
b010 ]
#109
13
#110
03
0?
0@
b00000000 A
b0000000000000000000000000000000000000000000000000000000000000000 B
b00000000 F
b0000000000000000000000000000000000000000000000000000000000000000 G
b00000000 K
b0000000000000000000000000000000000000000000000000000000000000000 L
0O
b00000000 P
b0000000000000000000000000000000000000000000000000000000000000000 Q
b00000000 U
b0000000000000000000000000000000000000000000000000000000000000000 V
0[
b0000 \
b000 ]
#111
13
#112
03
1;
1<
b00000000000000000000000000000011 =
b00000000000000000000000000000011 >
b011 ^
b0011 _
1`
#113
b011 &
13
#114
03
15
16
b00000000000000000000000000000011 7
19
b00000000000000000000000000000011 :
0;
0<
b00000000000000000000000000000000 =
b00000000000000000000000000000000 >
1X
b0011 Y
b011 Z
b000 ^
b0000 _
0`
#115
13
#116
03
05
06
b00000000000000000000000000000000 7
09
b00000000000000000000000000000000 :
1?
1@
b00000011 A
b0000000000000000000000000000000000000000000000000000000000000011 B
b00000011 F
b0000000000000000000000000000000000000000000000000000000000000011 G
b00000011 K
b0000000000000000000000000000000000000000000000000000000000000011 L
b00000011 P
b0000000000000000000000000000000000000000000000000000000000000011 Q
1T
b00000011 U
b0000000000000000000000000000000000000000000000000000000000000011 V
0X
b0000 Y
b000 Z
1[
b0011 \
b011 ]
#117
13
#118
03
0?
0@
b00000000 A
b0000000000000000000000000000000000000000000000000000000000000000 B
b00000000 F
b0000000000000000000000000000000000000000000000000000000000000000 G
b00000000 K
b0000000000000000000000000000000000000000000000000000000000000000 L
b00000000 P
b0000000000000000000000000000000000000000000000000000000000000000 Q
0T
b00000000 U
b0000000000000000000000000000000000000000000000000000000000000000 V
0[
b0000 \
b000 ]
#119
13
#120
03
1;
1<
b00000000000000000000000000000100 =
b00000000000000000000000000000100 >
b100 ^
b0100 _
1`
#121
b100 '
13
#122
03
15
16
b00000000000000000000000000000100 7
19
b00000000000000000000000000000100 :
0;
0<
b00000000000000000000000000000000 =
b00000000000000000000000000000000 >
1X
b0100 Y
b100 Z
b000 ^
b0000 _
0`
#123
13
#124
03
05
06
b00000000000000000000000000000000 7
09
b00000000000000000000000000000000 :
1?
1@
b00000100 A
b0000000000000000000000000000000000000000000000000000000000000100 B
1E
b00000100 F
b0000000000000000000000000000000000000000000000000000000000000100 G
b00000100 K
b0000000000000000000000000000000000000000000000000000000000000100 L
b00000100 P
b0000000000000000000000000000000000000000000000000000000000000100 Q
b00000100 U
b0000000000000000000000000000000000000000000000000000000000000100 V
0X
b0000 Y
b000 Z
1[
b0100 \
b100 ]
#125
13
#126
03
0?
0@
b00000000 A
b0000000000000000000000000000000000000000000000000000000000000000 B
0E
b00000000 F
b0000000000000000000000000000000000000000000000000000000000000000 G
b00000000 K
b0000000000000000000000000000000000000000000000000000000000000000 L
b00000000 P
b0000000000000000000000000000000000000000000000000000000000000000 Q
b00000000 U
b0000000000000000000000000000000000000000000000000000000000000000 V
0[
b0000 \
b000 ]
#127
13
#128
03
1;
1<
b00000000000000000000000000000101 =
b00000000000000000000000000000101 >
b101 ^
b0101 _
1`
#129
b101 (
13
#130
03
15
16
b00000000000000000000000000000101 7
19
b00000000000000000000000000000101 :
0;
0<
b00000000000000000000000000000000 =
b00000000000000000000000000000000 >
1X
b0101 Y
b101 Z
b000 ^
b0000 _
0`
#131
13
#132
03
05
06
b00000000000000000000000000000000 7
09
b00000000000000000000000000000000 :
1?
1@
b00000101 A
b0000000000000000000000000000000000000000000000000000000000000101 B
b00000101 F
b0000000000000000000000000000000000000000000000000000000000000101 G
1J
b00000101 K
b0000000000000000000000000000000000000000000000000000000000000101 L
b00000101 P
b0000000000000000000000000000000000000000000000000000000000000101 Q
b00000101 U
b0000000000000000000000000000000000000000000000000000000000000101 V
0X
b0000 Y
b000 Z
1[
b0101 \
b101 ]
#133
13
#134
03
0?
0@
b00000000 A
b0000000000000000000000000000000000000000000000000000000000000000 B
b00000000 F
b0000000000000000000000000000000000000000000000000000000000000000 G
0J
b00000000 K
b0000000000000000000000000000000000000000000000000000000000000000 L
b00000000 P
b0000000000000000000000000000000000000000000000000000000000000000 Q
b00000000 U
b0000000000000000000000000000000000000000000000000000000000000000 V
0[
b0000 \
b000 ]
#135
13
#136
03
1;
1<
b00000000000000000000000000000110 =
b00000000000000000000000000000110 >
b110 ^
b0110 _
1`
#137
b110 )
13
#138
03
15
16
b00000000000000000000000000000110 7
19
b00000000000000000000000000000110 :
0;
0<
b00000000000000000000000000000000 =
b00000000000000000000000000000000 >
1X
b0110 Y
b110 Z
b000 ^
b0000 _
0`
#139
13
#140
03
05
06
b00000000000000000000000000000000 7
09
b00000000000000000000000000000000 :
1?
1@
b00000110 A
b0000000000000000000000000000000000000000000000000000000000000110 B
b00000110 F
b0000000000000000000000000000000000000000000000000000000000000110 G
b00000110 K
b0000000000000000000000000000000000000000000000000000000000000110 L
1O
b00000110 P
b0000000000000000000000000000000000000000000000000000000000000110 Q
b00000110 U
b0000000000000000000000000000000000000000000000000000000000000110 V
0X
b0000 Y
b000 Z
1[
b0110 \
b110 ]
#141
13
#142
03
0?
0@
b00000000 A
b0000000000000000000000000000000000000000000000000000000000000000 B
b00000000 F
b0000000000000000000000000000000000000000000000000000000000000000 G
b00000000 K
b0000000000000000000000000000000000000000000000000000000000000000 L
0O
b00000000 P
b0000000000000000000000000000000000000000000000000000000000000000 Q
b00000000 U
b0000000000000000000000000000000000000000000000000000000000000000 V
0[
b0000 \
b000 ]
#143
13
#144
03
1;
1<
b00000000000000000000000000000111 =
b00000000000000000000000000000111 >
b111 ^
b0111 _
1`
#145
b111 *
13
#146
03
15
16
b00000000000000000000000000000111 7
19
b00000000000000000000000000000111 :
0;
0<
b00000000000000000000000000000000 =
b00000000000000000000000000000000 >
1X
b0111 Y
b111 Z
b000 ^
b0000 _
0`
#147
13
#148
03
05
06
b00000000000000000000000000000000 7
09
b00000000000000000000000000000000 :
1?
1@
b00000111 A
b0000000000000000000000000000000000000000000000000000000000000111 B
b00000111 F
b0000000000000000000000000000000000000000000000000000000000000111 G
b00000111 K
b0000000000000000000000000000000000000000000000000000000000000111 L
b00000111 P
b0000000000000000000000000000000000000000000000000000000000000111 Q
1T
b00000111 U
b0000000000000000000000000000000000000000000000000000000000000111 V
0X
b0000 Y
b000 Z
1[
b0111 \
b111 ]
#149
13
#150
03
0?
0@
b00000000 A
b0000000000000000000000000000000000000000000000000000000000000000 B
b00000000 F
b0000000000000000000000000000000000000000000000000000000000000000 G
b00000000 K
b0000000000000000000000000000000000000000000000000000000000000000 L
b00000000 P
b0000000000000000000000000000000000000000000000000000000000000000 Q
0T
b00000000 U
b0000000000000000000000000000000000000000000000000000000000000000 V
0[
b0000 \
b000 ]
#151
13
#152
03
1;
1<
b00000000000000000000000000001000 =
b00000000000000000000000000001000 >
b1000 _
1`
#153
b000 +
13
#154
03
15
16
b00000000000000000000000000001000 7
19
0;
0<
b00000000000000000000000000000000 =
b00000000000000000000000000000000 >
1X
b1000 Y
b0000 _
0`
#155
13
#156
03
05
06
b00000000000000000000000000000000 7
09
1?
1@
b00001000 A
b0000000000000000000000000000000000000000000000000000000000001000 B
1E
b00001000 F
b0000000000000000000000000000000000000000000000000000000000001000 G
b00001000 K
b0000000000000000000000000000000000000000000000000000000000001000 L
b00001000 P
b0000000000000000000000000000000000000000000000000000000000001000 Q
b00001000 U
b0000000000000000000000000000000000000000000000000000000000001000 V
0X
b0000 Y
1[
b1000 \
#157
13
#158
03
0?
0@
b00000000 A
b0000000000000000000000000000000000000000000000000000000000000000 B
0E
b00000000 F
b0000000000000000000000000000000000000000000000000000000000000000 G
b00000000 K
b0000000000000000000000000000000000000000000000000000000000000000 L
b00000000 P
b0000000000000000000000000000000000000000000000000000000000000000 Q
b00000000 U
b0000000000000000000000000000000000000000000000000000000000000000 V
0[
b0000 \
#159
13
#160
03
1;
1<
b00000000000000000000000000001001 =
b00000000000000000000000000001001 >
b001 ^
b1001 _
1`
#161
b001 ,
13
#162
03
15
16
b00000000000000000000000000001001 7
19
b00000000000000000000000000000001 :
0;
0<
b00000000000000000000000000000000 =
b00000000000000000000000000000000 >
1X
b1001 Y
b001 Z
b000 ^
b0000 _
0`
#163
13
#164
03
05
06
b00000000000000000000000000000000 7
09
b00000000000000000000000000000000 :
1?
1@
b00001001 A
b0000000000000000000000000000000000000000000000000000000000001001 B
b00001001 F
b0000000000000000000000000000000000000000000000000000000000001001 G
1J
b00001001 K
b0000000000000000000000000000000000000000000000000000000000001001 L
b00001001 P
b0000000000000000000000000000000000000000000000000000000000001001 Q
b00001001 U
b0000000000000000000000000000000000000000000000000000000000001001 V
0X
b0000 Y
b000 Z
1[
b1001 \
b001 ]
