examples/chisel-examples/vcd-traces/vcd-rewrite/Adder_rewrite.vcd
$date
   2024-01-30T08:19+0000
$end
$version
   0.2
$end
$comment
  
$end
$timescale
   1ns
$end
$scope module Adder $end
$var wire 1 ! carry_3  $end
$var wire 1 " carry_2  $end
$var wire 1 # carry_1  $end
$var wire 1 $ carry_0  $end
$var wire 3 % io_A_hi  $end
$var wire 5 & io_A_  $end
$var wire 1 * carry_5  $end
$var wire 1 + carry_4  $end
$var wire 1 = reset  $end
$var wire 2 > io_Sum_lo  $end
$var wire 1 A sum_2_4  $end
$var wire 1 B sum_2_3  $end
$var wire 1 C sum_2_2  $end
$var wire 1 E sum_2_1  $end
$var wire 1 F sum_2_0  $end
$var wire 1 G FullAdder_1  $end
$var wire 1 I FullAdder  $end
$var wire 1 J FullAdder_3  $end
$var wire 1 K FullAdder_2  $end
$var wire 1 L FullAdder_5  $end
$var wire 1 M FullAdder_4  $end
$var wire 5 N io_B  $end
$var wire 5 O io_A  $end
$var wire 1 X io_Cin  $end
$var wire 2 Y io_Sum_hi_hi  $end
$var wire 1 _ FullAdder_5_1  $end
$var wire 2 ` io_A_lo  $end
$var wire 1 e io_Cout  $end
$var wire 3 u io_Sum_hi  $end
$var wire 1 x clock  $end
$var wire 2 { io_A_hi_hi  $end
$var wire 1 | sum__0  $end
$var wire 1 } sum__2  $end
$var wire 1 ~ sum__1  $end
$var wire 1 "! sum__4  $end
$var wire 1 "" sum__3  $end
$var wire 1 "$ io_A_prng  $end
$var wire 5 ") io_Sum  $end

$scope module FullAdder_1 $end
$var wire 1 - a_xor_b  $end
$var wire 1 D b_and_cin  $end
$var wire 1 U io_sum  $end
$var wire 1 ] a_and_cin  $end
$var wire 1 m a_and_b  $end
$var wire 1 "% io_cout  $end
$var wire 1 "* io_b  $end
$var wire 1 "+ io_cin  $end
$var wire 1 ", io_a  $end

$upscope $end
$scope module FullAdder $end
$var wire 1 ' io_a  $end
$var wire 1 ) io_b  $end
$var wire 1 ? a_and_b  $end
$var wire 1 P io_cout  $end
$var wire 1 R io_cin  $end
$var wire 1 ^ b_and_cin  $end
$var wire 1 k a_xor_b  $end
$var wire 1 "# a_and_cin  $end
$var wire 1 "& io_sum  $end

$upscope $end
$scope module FullAdder_3 $end
$var wire 1 ( b_and_cin  $end
$var wire 1 @ a_and_cin  $end
$var wire 1 Q io_cin  $end
$var wire 1 S a_and_b  $end
$var wire 1 i io_a  $end
$var wire 1 j io_b  $end
$var wire 1 w a_xor_b  $end
$var wire 1 z io_cout  $end
$var wire 1 "( io_sum  $end

$upscope $end
$scope module FullAdder_2 $end
$var wire 1 2 io_sum  $end
$var wire 1 4 b_and_cin  $end
$var wire 1 T io_cout  $end
$var wire 1 [ io_a  $end
$var wire 1 \ io_b  $end
$var wire 1 o a_and_b  $end
$var wire 1 y io_cin  $end
$var wire 1 "- a_xor_b  $end
$var wire 1 "0 a_and_cin  $end

$upscope $end
$scope module FullAdder_4 $end
$var wire 1 . io_sum  $end
$var wire 1 7 a_and_b  $end
$var wire 1 < a_and_cin  $end
$var wire 1 W a_xor_b  $end
$var wire 1 Z b_and_cin  $end
$var wire 1 l io_cin  $end
$var wire 1 "' io_cout  $end
$var wire 1 ". io_a  $end
$var wire 1 "/ io_b  $end

$upscope $end
$scope module FullAdder_5_1 $end
$var wire 1 , io_cin  $end
$var wire 1 / a_xor_b  $end
$var wire 1 5 io_b  $end
$var wire 1 : io_a  $end
$var wire 1 H b_and_cin  $end
$var wire 1 V a_and_b  $end
$var wire 1 a io_sum  $end
$var wire 1 b a_and_cin  $end
$var wire 1 p io_cout  $end

$upscope $end
$scope module io_A_prng $end
$var wire 1 0 io_out_2  $end
$var wire 1 1 io_out_3  $end
$var wire 1 3 io_out_4  $end
$var wire 1 6 io_out_0  $end
$var wire 1 8 io_out_1  $end
$var wire 1 9 io_increment  $end
$var wire 1 c state_0  $end
$var wire 1 d state_1  $end
$var wire 1 f state_2  $end
$var wire 1 g state_3  $end
$var wire 1 h state_4  $end
$var wire 1 n io_seed_bits_4  $end
$var wire 1 q io_seed_bits_2  $end
$var wire 1 r io_seed_bits_3  $end
$var wire 1 s io_seed_bits_0  $end
$var wire 1 v io_seed_bits_1  $end
$var wire 1 "1 io_seed_valid  $end
$var wire 1 ; clock  $end
$var wire 1 t reset  $end

$upscope $end
$upscope $end
$enddefinitions $end
$dumpvars
00
01
02
03
04
06
07
08
09
0;
0<
0=
0?
0@
0A
0B
0C
0D
0E
0F
0G
0H
0I
0J
0K
0L
0M
0P
0Q
0R
0S
15
0T
0U
0V
0W
0X
1:
0Z
0[
0\
0]
0^
0_
0a
0b
0c
0d
0e
0f
0g
0h
0i
0j
0k
0l
0m
0n
0o
0p
0q
0r
0s
0t
0v
0w
0x
0y
0z
0|
0}
0~
0"!
0""
0"#
0"$
0"%
0"&
0"'
0"(
0"*
0"+
0",
0"-
0".
0"/
0"0
0"1
b00000 &
b000 u
b00000 ")
b00000 O
b00000 N
b00 {
b00 `
b00 Y
b000 %
0!
0"
0#
0$
0'
0(
0)
0*
0+
b00 >
0,
0-
0.
0/
#0
1p
1t
1V
19
1L
1=
#1
b01 `
1c
b00001 &
16
1x
1;
#6
0x
0;
#11
1x
1;
#16
0x
0;
#21
1x
1;
#26
0x
0;
#31
1x
1;
#36
0x
0;
#41
1x
1;
#46
1#
1E
1'
b00010 ")
1)
1"+
b00001 N
b00001 O
1P
0t
1U
0x
0;
0=
b10 >
1~
1?
#51
b10 `
0c
1d
b00010 &
06
18
1x
1;
#56
1"#
1$
1"&
1F
b00011 ")
1R
1X
0x
0;
1|
b11 >
1^
#61
10
b00 `
0d
b001 %
b00100 &
1f
08
1x
1;
#66
0"#
1C
0E
b00101 ")
0"+
1"-
b00100 N
0P
0R
0U
0X
1\
0^
0#
0$
0)
1k
12
b001 u
0x
0;
1}
b01 >
0~
0?
#71
b01 `
1c
b010 %
b01001 &
0f
1g
00
11
16
1x
1;
b01 {
#76
1"#
1#
1$
0"&
1E
0F
b00110 ")
1"+
1P
1R
1U
1X
0x
0;
0|
b10 >
1~
#81
b10 `
0c
1d
b100 %
b10010 &
0g
1h
01
13
06
18
1x
1;
b10 {
#86
1""
0"#
1B
0C
1"%
1D
0E
1"(
b01000 ")
1"*
b00111 N
1Q
0R
1T
0U
0X
b01 Y
1!
1"
0$
1)
0k
1-
02
14
b010 u
0x
1y
0;
0}
b00 >
0~
1?
#91
b01 `
1c
0d
b001 %
b00101 &
1f
0h
10
03
16
08
1x
1;
b00 {
#96
1"#
1$
1"&
1F
b01001 ")
1R
1X
0x
0;
1|
b01 >
1^
#101
b11 `
1d
b010 %
b01011 &
0f
1g
00
11
18
1x
1;
b01 {
#106
0"#
0"%
0D
1E
b01011 ")
0"+
0"-
b01010 N
0P
0Q
0R
0T
1U
0X
0\
0^
0!
0"
0#
0$
0)
1j
1k
04
1w
0x
0y
0;
b11 >
1~
0?
#111
b10 `
0c
b101 %
b10110 &
1f
0g
1h
10
01
13
06
1x
1;
b10 {
#116
1"#
1C
1"%
1D
0"&
0E
0F
b01100 ")
1"+
1P
1R
0U
1X
1"
1#
1$
12
b011 u
0x
1y
0;
0|
1}
b00 >
0~
#121
b00 `
0d
b011 %
b01100 &
1g
0h
11
03
08
1x
1;
b01 {
#126
0"#
0"
0"%
0$
0D
1E
b01110 ")
0"*
1)
0k
1"-
0-
b01101 N
0R
1U
0X
0x
0y
0;
1\
b10 >
1~
1?
#131
b01 `
1c
b110 %
b11001 &
0f
1h
00
13
16
1x
1;
b11 {
#136
1"#
1$
1"&
1F
b01111 ")
1R
1X
0x
0;
1|
b11 >
1^
#141
b11 `
01
1d
b100 %
b10011 &
0g
18
1x
1;
b10 {
#146
0""
1A
0"#
0B
0C
0E
0"(
b10001 ")
0"+
0"-
1"/
b10000 N
0P
0R
0U
1W
0X
b10 Y
0\
0^
0#
0$
0)
0j
1k
1.
02
b100 u
0w
0x
0;
0}
b01 >
0~
0?
1"!
#151
10
03
b001 %
b00111 &
1f
0h
1x
1;
b00 {
#156
1"#
1#
1$
0"&
1E
0F
b10010 ")
1"+
1P
1R
1U
1X
0x
0;
0|
b10 >
1~
#161
11
b011 %
b01111 &
1g
1x
1;
b01 {
#166
0"#
1C
1"%
1D
0E
b10100 ")
1"*
b10011 N
0R
0U
0X
1"
0$
1)
0k
1-
12
b101 u
0x
1y
0;
1}
b00 >
0~
1?
#171
13
b111 %
b11111 &
1h
1x
1;
b11 {
#176
1"#
1$
1"&
1F
b10101 ")
1R
1X
0x
0;
1|
b01 >
1^
#181
b10 `
0c
b11110 &
06
1x
1;
#186
0"#
0"%
0D
1E
b10111 ")
0"+
1"-
b10110 N
0P
0R
1U
0X
1\
0^
0"
0#
0$
0)
1k
0x
0y
0;
b11 >
1~
0?
#191
b00 `
0d
b11100 &
08
1x
1;
#196
1""
1"#
1B
0C
1"%
1D
0"&
0E
0F
1"(
b11000 ")
1"+
1P
1Q
1R
1T
0U
1X
b11 Y
1!
1"
1#
1$
02
14
b110 u
0x
1y
0;
0|
0}
b00 >
0~
#201
00
b110 %
b11000 &
0f
1x
1;
#206
0"#
0"%
0D
1E
b11010 ")
0"*
0"-
b11001 N
0Q
0R
0T
1U
0X
0\
0!
0"
0$
1)
1j
0k
0-
04
1w
0x
0y
0;
b10 >
1~
1?
#211
b01 `
01
1c
b100 %
b10001 &
16
0g
1x
1;
b10 {
#216
1"#
1$
1"&
1F
b11011 ")
1R
1X
0x
0;
1|
b11 >
1^
#221
b11 `
03
1d
b000 %
b00011 &
18
0h
1x
1;
b00 {
#226
0"#
1C
0E
b11101 ")
0"+
1"-
b11100 N
0P
0R
0U
0X
1\
0^
0#
0$
0)
1k
12
b111 u
0x
0;
1}
b01 >
0~
0?
#231
10
b10 `
0c
b001 %
b00110 &
06
1f
1x
1;
#236
1"#
1#
1$
0"&
1E
0F
b11110 ")
1"+
1P
1R
1U
1X
0x
0;
0|
b10 >
1~
#241
b01 `
1c
0d
b011 %
b01101 &
1g
11
16
08
1x
1;
b01 {
#246
0""
0A
0"#
0B
0C
1"%
1D
0E
1"'
0"(
b00000 ")
1"*
b11111 N
1Q
0R
1T
0U
0X
b00 Y
1Z
1!
1"
0$
1e
1(
1)
1*
1+
0k
1l
1-
0.
02
14
b000 u
0x
1y
1z
0;
0}
b00 >
0~
1?
0"!
#251
b11 `
1d
b110 %
b11011 &
0f
1h
00
13
18
1x
1;
b11 {
#256
1"#
1$
1"&
1F
b00001 ")
1R
1X
0x
0;
1|
b01 >
1^
#261
10
01
b101 %
b10111 &
1f
0g
1x
1;
b10 {
#266
0"#
1C
0"%
0D
0"'
b00101 ")
0"*
0"+
0"/
b00001 N
b00100 O
0P
0Q
0R
0T
0W
0X
0Z
1[
0\
0^
0!
0"
0#
0$
0e
0'
0(
0*
0j
0+
1k
0l
0-
12
04
b001 u
0w
0x
0y
0z
0;
1}
0?
#271
b10 `
0c
b011 %
b01110 &
1g
0h
11
03
06
1x
1;
b01 {
#276
1#
1$
0"&
1E
0F
b00110 ")
1"+
1P
1R
1U
1X
0x
0;
0|
b10 >
1^
1~
#281
b01 `
1c
0d
b111 %
b11101 &
1h
13
16
08
1x
1;
b11 {
#286
1""
1B
0C
0E
1"(
b01000 ")
0"+
0"-
b00100 N
0P
1Q
0R
1T
0U
0X
b01 Y
1\
0^
1!
0#
0$
0)
0k
1o
02
b010 u
0x
0;
0}
b00 >
0~
#291
00
b10 `
0c
1d
b110 %
b11010 &
06
0f
18
1x
1;
#296
1R
1$
1"&
1F
b01001 ")
1X
0x
0;
1|
b01 >
#301
b01 `
1c
0d
b101 %
b10101 &
1f
0g
10
01
16
08
1x
1;
b10 {
#306
0$
1E
b01011 ")
1"*
1)
1k
1-
b00111 N
0R
1U
0X
0x
0;
b11 >
1~
#311
b10 `
0c
1d
b010 %
b01010 &
0f
1g
0h
00
11
03
06
18
1x
1;
b01 {
#316
1C
1"%
1D
0"&
0E
0F
b01100 ")
1"+
1"0
1P
1R
0U
1X
1^
1"
1#
1$
12
14
b011 u
0x
1y
0;
0|
1}
b00 >
0~
#321
b00 `
0d
b101 %
b10100 &
1f
0g
1h
10
01
13
08
1x
1;
b10 {
#326
0"%
0D
1E
b01110 ")
0"+
1"-
b01010 N
0"0
0P
0Q
0R
0T
1U
0X
0\
0^
0!
0"
0#
0$
0)
1j
0k
0o
04
1w
0x
0y
0;
b10 >
1~
#331
00
11
03
b010 %
b01000 &
0f
1g
0h
1x
1;
b01 {
#336
1R
1$
1"&
1F
b01111 ")
1X
0x
0;
1|
b11 >
#341
01
13
b100 %
b10000 &
0g
1h
1x
1;
b10 {
#346
0""
1A
0B
0C
0E
0"(
b10001 ")
0"*
0"-
b01101 N
1Q
0R
1T
0U
0X
b10 Y
1\
1!
0$
1(
1)
1+
1k
1l
0-
1.
1o
02
b100 u
0x
1z
0;
0}
b01 >
0~
1"!
#351
b01 `
03
1c
b000 %
b00001 &
16
0h
1x
1;
b00 {
#356
1#
1$
0"&
1E
0F
b10010 ")
1"+
1P
1R
1U
1X
0x
0;
0|
b10 >
1^
1~
#361
b10 `
0c
1d
b00010 &
06
18
1x
1;
#366
1C
0E
b10100 ")
0"+
1"-
1"/
b10000 N
0P
0Q
0R
0T
0U
1W
0X
0\
0^
0!
0#
0$
0(
0)
0j
0+
0k
0l
0o
12
b101 u
0w
0x
0z
0;
1}
b00 >
0~
#371
10
b00 `
0d
b001 %
b00100 &
1f
08
1x
1;
#376
1R
1$
1"&
1F
b10101 ")
1X
0x
0;
1|
b01 >
#381
b01 `
1c
b010 %
b01001 &
0f
1g
00
11
16
1x
1;
b01 {
#386
0$
1E
b10111 ")
1"*
1)
1k
1-
b10011 N
0R
1U
0X
0x
0;
b11 >
1~
#391
b10 `
0c
1d
b100 %
b10010 &
0g
1h
01
13
06
18
1x
1;
b10 {
#396
1""
1B
0C
1"%
1D
0"&
0E
0F
1"(
b11000 ")
1"+
1"0
1P
1Q
1R
1T
0U
1X
b11 Y
1^
1!
1"
1#
1$
02
b110 u
0x
1y
0;
0|
0}
b00 >
0~
#401
b01 `
1c
0d
b001 %
b00101 &
1f
0h
10
03
16
08
1x
1;
b00 {
#406
0"%
0D
1E
b11010 ")
0"+
0"-
b10110 N
0"0
0P
0R
1U
0X
1\
0^
0"
0#
0$
0)
0k
1o
0x
0y
0;
b10 >
1~
#411
b11 `
1d
b010 %
b01011 &
0f
1g
00
11
18
1x
1;
b01 {
#416
1R
1$
1"&
1F
b11011 ")
1X
0x
0;
1|
b11 >
#421
b10 `
0c
b101 %
b10110 &
1f
0g
1h
10
01
13
06
1x
1;
b10 {
#426
1C
0E
b11101 ")
0"*
1"-
b11001 N
0Q
0R
0T
0U
0X
0\
0!
0$
1)
1j
1k
0-
0o
12
b111 u
1w
0x
0;
1}
b01 >
0~
#431
b00 `
0d
b011 %
b01100 &
1g
0h
11
03
08
1x
1;
b01 {
#436
1#
1$
0"&
1E
0F
b11110 ")
1"+
1P
1R
1U
1X
0x
0;
0|
b10 >
1^
1~
#441
b01 `
1c
b110 %
b11001 &
0f
1h
00
13
16
1x
1;
b11 {
#446
0""
0A
0B
0C
0E
1"'
0"(
b00000 ")
0"+
0"-
b11100 N
0P
1Q
0R
1T
0U
0X
b00 Y
1Z
1\
0^
1!
0#
0$
1e
1(
0)
1*
1+
0k
1l
0.
1o
02
b000 u
0x
1z
0;
0}
b00 >
0~
0"!
#451
b11 `
01
1d
b100 %
b10011 &
0g
18
1x
1;
b10 {
#456
1R
1$
1"&
1F
b00001 ")
1X
0x
0;
1|
b01 >
#461
10
03
b001 %
b00111 &
1f
0h
1x
1;
b00 {
#466
1a
1b
0$
1E
b00011 ")
1H
1"*
1)
1k
1,
1-
b11111 N
0R
1U
0X
0x
0;
b11 >
1~
#471
11
b011 %
b01111 &
1g
1x
1;
b01 {
#476
1C
1"%
1D
0"&
0E
0F
b00100 ")
0H
1"+
1"0
1P
1R
0U
1X
1^
0a
1"
0b
1#
1$
0,
12
14
b001 u
0x
1y
0;
0|
1}
b00 >
0~
#481
13
b111 %
b11111 &
1h
1x
1;
b11 {
#486
1""
1B
0C
0D
0"'
1"(
b01000 ")
0"*
1",
1"-
0"/
b00001 N
b00111 O
0R
0W
0X
b01 Y
0Z
0\
1]
0^
0$
0e
1'
0(
0*
0j
0+
0k
0l
0o
02
04
b010 u
0w
0x
0z
0;
0}
1?
#491
b10 `
0c
b11110 &
06
1x
1;
#496
1"#
1$
1"&
1F
b01001 ")
1R
1X
0x
0;
1|
b01 >
1^
#501
b00 `
0d
b11100 &
08
1x
1;
#506
0"#
0"%
1E
b01011 ")
0"+
0"-
b00100 N
0"0
0P
0R
1U
0X
1\
0]
0^
0"
0#
0$
0)
1k
1o
0x
0y
0;
b11 >
1~
0?
#511
00
b110 %
b11000 &
0f
1x
1;
#516
1"#
1C
1"%
0"&
0E
0F
b01100 ")
1"+
1"0
1P
1R
0U
1X
1]
1"
1#
1$
12
14
b011 u
0x
1y
0;
0|
1}
b00 >
0~
#521
b01 `
01
1c
b100 %
b10001 &
16
0g
1x
1;
b10 {
#526
0"#
0$
1D
1E
b01110 ")
1"*
1)
0k
0-
1m
b00111 N
0R
1U
0X
0x
0;
b10 >
1~
1?
#531
b11 `
03
1d
b000 %
b00011 &
18
0h
1x
1;
b00 {
#536
1"#
1$
1"&
1F
b01111 ")
1R
1X
0x
0;
1|
b11 >
1^
#541
10
b10 `
0c
b001 %
b00110 &
06
1f
1x
1;
#546
0""
1A
0"#
0B
0C
0D
0E
0"(
b10001 ")
0"+
1"-
b01010 N
0P
0R
0U
0X
b10 Y
0\
0]
0^
0#
0$
1(
0)
1j
1+
1k
1l
1.
0o
02
04
b100 u
1w
0x
1z
0;
0}
b01 >
0~
0?
1"!
#551
b01 `
1c
0d
b011 %
b01101 &
1g
11
16
08
1x
1;
b01 {
#556
1"#
1#
1$
1D
0"&
1E
0F
b10010 ")
1"+
1P
1R
1U
1X
0x
0;
0|
1]
b10 >
1~
#561
b11 `
1d
b110 %
b11011 &
0f
1h
00
13
18
1x
1;
b11 {
#566
0"#
1C
0D
0E
b10100 ")
0"*
0"-
b01101 N
0R
0U
0X
1\
0$
1)
0k
1-
0m
1o
12
14
b101 u
0x
0;
1}
b00 >
0~
1?
#571
10
01
b101 %
b10111 &
1f
0g
1x
1;
b10 {
#576
1"#
1$
1"&
1F
b10101 ")
1R
1X
0x
0;
1|
b01 >
1^
#581
b10 `
0c
b011 %
b01110 &
1g
0h
11
03
06
1x
1;
b01 {
#586
0"#
0"%
1E
b10111 ")
0"+
1"-
1"/
b10000 N
0"0
0P
0Q
0R
0T
1U
1W
0X
0\
0]
0^
0!
0"
0#
0$
0(
0)
0j
0+
1k
0l
0o
04
0w
0x
0y
0z
0;
b11 >
1~
0?
#591
b01 `
1c
0d
b111 %
b11101 &
1h
13
16
08
1x
1;
b11 {
#596
1""
1"#
1B
0C
1"%
0"&
0E
0F
1"(
b11000 ")
1"+
1"0
1P
1Q
1R
1T
0U
1X
b11 Y
1]
1!
1"
1#
1$
02
b110 u
0x
1y
0;
0|
0}
b00 >
0~
#601
00
b10 `
0c
1d
b110 %
b11010 &
06
0f
18
1x
1;
#606
0"#
0$
1D
1E
b11010 ")
1"*
1)
0k
0-
1m
b10011 N
0R
1U
0X
0x
0;
b10 >
1~
1?
#611
b01 `
1c
0d
b101 %
b10101 &
1f
0g
10
01
16
08
1x
1;
b10 {
#616
1"#
1$
1"&
1F
b11011 ")
1R
1X
0x
0;
1|
b11 >
1^
#621
b10 `
0c
1d
b010 %
b01010 &
0f
1g
0h
00
11
03
06
18
1x
1;
b01 {
#626
0"#
1C
0D
0E
b11101 ")
0"+
0"-
b10110 N
0P
0R
0U
0X
1\
0]
0^
0#
0$
0)
1k
1o
12
14
b111 u
0x
0;
1}
b01 >
0~
0?
#631
b00 `
0d
b101 %
b10100 &
1f
0g
1h
10
01
13
08
1x
1;
b10 {
#636
1"#
1#
1$
1D
0"&
1E
0F
b11110 ")
1"+
1P
1R
1U
1X
0x
0;
0|
1]
b10 >
1~
#641
00
11
03
b010 %
b01000 &
0f
1g
0h
1x
1;
b01 {
#646
0""
0A
0"#
0B
0C
0D
0E
1"'
0"(
b00000 ")
0"*
1"-
b11001 N
0R
0U
0X
b00 Y
1Z
0\
0$
1e
1(
1)
1*
1j
1+
0k
1l
1-
0m
0.
0o
02
04
b000 u
1w
0x
1z
0;
0}
b00 >
0~
1?
0"!
#651
01
13
b100 %
b10000 &
0g
1h
1x
1;
b10 {
#656
1"#
1$
1"&
1F
b00001 ")
1R
1X
0x
0;
1|
b01 >
1^
#661
b01 `
03
1c
b000 %
b00001 &
16
0h
1x
1;
b00 {
#666
0"#
0"%
1E
b00011 ")
1H
0"+
0"-
b11100 N
0"0
0P
0R
1U
0X
1\
0]
0^
1a
0"
1b
0#
0$
0)
1k
1,
1o
0x
0y
0;
b11 >
1~
0?
#671
b10 `
0c
1d
b00010 &
06
18
1x
1;
#676
1"#
1C
1"%
0"&
0E
0F
b00100 ")
0H
1"+
1"0
1P
1R
0U
1X
1]
0a
1"
0b
1#
1$
0,
12
14
b001 u
0x
1y
0;
0|
1}
b00 >
0~
#681
10
b00 `
0d
b001 %
b00100 &
1f
08
1x
1;
#686
1a
0"#
1b
0$
1D
1E
b00110 ")
1H
1"*
1)
0k
1,
0-
1m
b11111 N
0R
1U
0X
0x
0;
b10 >
1~
1?
#691
b01 `
1c
b010 %
b01001 &
0f
1g
00
11
16
1x
1;
b01 {
#696
1"#
1$
1"&
1F
b00111 ")
1R
1X
0x
0;
1|
b11 >
1^
#701
b10 `
0c
1d
b100 %
b10010 &
0g
1h
01
13
06
18
1x
1;
b10 {
#706
0!
0"
0#
0$
0'
0(
0*
0+
0,
1-
02
04
0;
0?
1""
0"#
1B
0C
0"%
0D
0"'
1"(
b01011 ")
0H
0"*
0"+
0"/
b00001 N
0"0
b01010 O
0P
0Q
0R
0T
0W
0X
b01 Y
0Z
0[
0\
0]
0^
0a
0b
0e
1i
0j
1k
0l
0m
0o
b010 u
0x
0y
0z
0}
#711
b01 `
1c
0d
b001 %
b00101 &
1f
0h
10
03
16
08
1x
1;
b00 {
#716
1C
1"%
0"&
0E
0F
b01100 ")
1"+
1P
1R
0U
1X
1]
1^
1"
1#
1$
12
b011 u
0x
1y
0;
0|
1}
b00 >
0~
#721
b11 `
1d
b010 %
b01011 &
0f
1g
00
11
18
1x
1;
b01 {
#726
0"
0#
0"%
0$
1E
b01110 ")
0)
0"+
0k
1"-
b00100 N
0P
0R
1U
0X
0x
0y
0;
1\
0]
b10 >
0^
1~
#731
b10 `
0c
b101 %
b10110 &
1f
0g
1h
10
01
13
06
1x
1;
b10 {
#736
1R
1$
1"&
1F
b01111 ")
1X
0x
0;
1|
b11 >
#741
b00 `
0d
b011 %
b01100 &
1g
0h
11
03
08
1x
1;
b01 {
#746
1@
0""
1A
0B
0C
1"%
0E
0"(
b10001 ")
1"*
b00111 N
1Q
0R
1T
0U
0X
b10 Y
1!
1"
0$
1)
1+
1k
1l
0-
1m
1.
02
14
b100 u
0x
1y
1z
0;
0}
b01 >
0~
1"!
#751
b01 `
1c
b110 %
b11001 &
0f
1h
00
13
16
1x
1;
b11 {
#756
1#
1$
1D
0"&
1E
0F
b10010 ")
1"+
1P
1R
1U
1X
0x
0;
0|
1]
b10 >
1^
1~
#761
b11 `
01
1d
b100 %
b10011 &
0g
18
1x
1;
b10 {
#766
0@
1C
0D
0E
b10100 ")
0"+
0"-
b01010 N
0P
0Q
0R
1S
0T
0U
0X
0\
0]
0^
0!
0#
0$
0)
1j
0k
12
04
b101 u
0w
0x
0;
1}
b00 >
0~
#771
10
03
b001 %
b00111 &
1f
0h
1x
1;
b00 {
#776
1R
1$
1"&
1F
b10101 ")
1X
0x
0;
1|
b01 >
#781
11
b011 %
b01111 &
1g
1x
1;
b01 {
#786
0"
0"%
0$
1E
b10111 ")
0"*
1)
1k
1"-
1-
0m
b01101 N
0R
1U
0X
0x
0y
0;
1\
b11 >
1~
#791
13
b111 %
b11111 &
1h
1x
1;
b11 {
#796
1@
1""
1B
0C
1"%
0"&
0E
0F
1"(
b11000 ")
1"+
1P
1Q
1R
1T
0U
1X
b11 Y
1]
1^
1!
1"
1#
1$
1(
02
14
b110 u
0x
1y
0;
0|
0}
b00 >
0~
#801
b10 `
0c
b11110 &
06
1x
1;
#806
0@
0"%
1E
b11010 ")
0"+
0"-
1"/
b10000 N
0P
0Q
0R
0S
0T
1U
1W
0X
0\
0]
0^
0!
0"
0#
0$
0(
0)
0j
0+
0k
0l
04
1w
0x
0y
0z
0;
b10 >
1~
#811
b00 `
0d
b11100 &
08
1x
1;
#816
1R
1$
1"&
1F
b11011 ")
1X
0x
0;
1|
b11 >
#821
00
b110 %
b11000 &
0f
1x
1;
#826
1"
1C
1"%
0$
0E
b11101 ")
1"*
1)
1k
0-
1m
b10011 N
12
0R
0U
b111 u
0X
0x
1y
0;
1}
b01 >
0~
#831
b01 `
01
1c
b100 %
b10001 &
16
0g
1x
1;
b10 {
#836
1#
1$
1D
0"&
1E
0F
b11110 ")
1"+
1P
1R
1U
1X
0x
0;
0|
1]
b10 >
1^
1~
#841
b11 `
03
1d
b000 %
b00011 &
18
0h
1x
1;
b00 {
#846
1@
0""
0A
0B
0C
0D
0E
1"'
0"(
b00000 ")
0"+
1"-
b10110 N
0P
1Q
0R
1T
0U
0X
b00 Y
1Z
1\
0]
0^
1!
0#
0$
1e
0)
1*
1+
0k
1l
0.
02
14
b000 u
0x
1z
0;
0}
b00 >
0~
0"!
#851
10
b10 `
0c
b001 %
b00110 &
06
1f
1x
1;
#856
1R
1$
1"&
1F
b00001 ")
1X
0x
0;
1|
b01 >
#861
b01 `
1c
0d
b011 %
b01101 &
1g
11
16
08
1x
1;
b01 {
#866
0@
0"%
1E
b00011 ")
1H
0"*
0"-
b11001 N
0Q
0R
1S
0T
1U
0X
0\
0!
1a
0"
1b
0$
1)
1j
1k
1,
1-
0m
04
0w
0x
0y
0;
b11 >
1~
#871
b11 `
1d
b110 %
b11011 &
0f
1h
00
13
18
1x
1;
b11 {
#876
1C
1"%
0"&
0E
0F
b00100 ")
0H
1"+
1P
1R
0U
1X
1]
1^
0a
1"
0b
1#
1$
0,
12
b001 u
0x
1y
0;
0|
1}
b00 >
0~
#881
10
01
b101 %
b10111 &
1f
0g
1x
1;
b10 {
#886
0"%
1E
b00110 ")
1H
0"+
1"-
b11100 N
0P
0R
1U
0X
1\
0]
0^
1a
0"
1b
0#
0$
0)
0k
1,
0x
0y
0;
b10 >
1~
#891
b10 `
0c
b011 %
b01110 &
1g
0h
11
03
06
1x
1;
b01 {
#896
1R
1$
1"&
1F
b00111 ")
1X
0x
0;
1|
b11 >
#901
b01 `
1c
0d
b111 %
b11101 &
1h
13
16
08
1x
1;
b11 {
#906
1@
1""
1B
0C
1"%
0E
1"(
b01001 ")
0H
1"*
b11111 N
1Q
0R
1T
0U
0X
b01 Y
1!
0a
1"
0b
0$
1(
1)
1k
0,
0-
1m
02
14
b010 u
0x
1y
0;
0}
b01 >
0~
#911
00
b10 `
0c
1d
b110 %
b11010 &
06
0f
18
1x
1;
#916
1a
1b
1#
1$
1D
0"&
1E
0F
b01010 ")
1H
1"+
1,
1P
1R
1U
1X
0x
0;
0|
1]
b10 >
1^
1~
#921
b01 `
1c
0d
b101 %
b10101 &
1f
0g
10
01
16
08
1x
1;
b10 {
#926
0!
0"
0$
1'
0(
0*
0+
0,
12
04
0;
1?
0@
1C
0"%
0D
0"'
b01110 ")
0H
0"*
0",
0"/
b00001 N
b01101 O
0Q
0R
0S
0T
0W
0X
0Z
1[
0\
0]
0^
0a
0b
0e
0j
0k
0l
0m
b011 u
1w
0x
0y
0z
1}
#931
b10 `
0c
1d
b010 %
b01010 &
0f
1g
0h
00
11
03
06
18
1x
1;
b01 {
#936
1"#
1$
1"&
1F
b01111 ")
1R
1X
0x
0;
1|
b11 >
1^
#941
b00 `
0d
b101 %
b10100 &
1f
0g
1h
10
01
13
08
1x
1;
b10 {
#946
1@
0""
1A
0"#
0B
0C
0E
0"(
b10001 ")
0"+
0"-
b00100 N
0P
1Q
0R
1T
0U
0X
b10 Y
1\
0^
1!
0#
0$
0)
1+
1k
1l
1.
1o
02
b100 u
0x
1z
0;
0}
b01 >
0~
0?
1"!
#951
00
11
03
b010 %
b01000 &
0f
1g
0h
1x
1;
b01 {
#956
1"#
1#
1$
0"&
1E
0F
b10010 ")
1"+
1P
1R
1U
1X
0x
0;
0|
b10 >
1~
#961
01
13
b100 %
b10000 &
0g
1h
1x
1;
b10 {
#966
0"#
1C
1"%
1D
0E
b10100 ")
1"*
b00111 N
1"0
0R
0U
0X
1"
0$
1)
0k
1-
12
14
b101 u
0x
1y
0;
1}
b00 >
0~
1?
#971
b01 `
03
1c
b000 %
b00001 &
16
0h
1x
1;
b00 {
#976
1"#
1$
1"&
1F
b10101 ")
1R
1X
0x
0;
1|
b01 >
1^
#981
b10 `
0c
1d
b00010 &
06
18
1x
1;
#986
0@
0"#
0"%
0D
1E
b10111 ")
0"+
1"-
b01010 N
0"0
0P
0Q
0R
1S
0T
1U
0X
0\
0^
0!
0"
0#
0$
0)
1j
1k
0o
04
0w
0x
0y
0;
b11 >
1~
0?
#991
10
b00 `
0d
b001 %
b00100 &
1f
08
1x
1;
#996
1@
1""
1"#
1B
0C
1"%
1D
0"&
0E
0F
1"(
b11000 ")
1"+
1"0
1P
1Q
1R
1T
0U
1X
b11 Y
1!
1"
1#
1$
1(
02
b110 u
0x
1y
0;
0|
0}
b00 >
0~
#1001
b01 `
1c
b010 %
b01001 &
0f
1g
00
11
16
1x
1;
b01 {
