examples/chisel-examples/vcd-traces/vcd-rewrite/Functionality_rewrite_from_verilator.vcd
$version
   Generated by VerilatedVcd
$end
$date
   Tue 30 Jan 2024 09:49:30 CET
$end
$timescale
   1ps
$end
$scope module TOP $end
$var wire 1 # clock  $end
$var wire 16 % io_x [15:0] $end
$var wire 16 & io_y [15:0] $end
$var wire 16 ' io_z_boolean [15:0] $end
$var wire 16 + io_z_class [15:0] $end
$var wire 16 ( io_z_function [15:0] $end
$var wire 16 * io_z_object [15:0] $end
$var wire 16 ) io_z_val [15:0] $end
$var wire 1 $ reset  $end

$scope module Functionality $end
$var wire 1 # clock  $end
$var wire 1 $ reset  $end

$scope module io $end
$var wire 16 % x [15:0] $end
$var wire 16 & y [15:0] $end
$var wire 16 ' z_boolean [15:0] $end
$var wire 16 ( z_function [15:0] $end
$var wire 16 ) z_val [15:0] $end
$var wire 16 * z_object [15:0] $end
$var wire 16 + z_class [15:0] $end

$upscope $end
$upscope $end
$upscope $end
$enddefinitions $end
#0
0#
1$
b0000000000000000 %
b0000000000000000 &
b0000000000000000 '
b0000000000000000 (
b0000000000000000 )
b0000000000000000 *
b0000000000000000 +
#1
1#
#2
0#
#3
1#
#4
0#
#5
1#
#6
0#
#7
1#
#8
0#
#9
1#
#10
0#
0$
#11
1#
#12
0#
b0000000001100100 &
b0000000001100100 '
b0000000001100100 (
b0000000001100100 )
b0000000001100100 *
b0000000001100100 +
#13
1#
#14
0#
b0000000011001000 &
b0000000011001000 '
b0000000011001000 (
b0000000011001000 )
b0000000011001000 *
b0000000011001000 +
#15
1#
#16
0#
b0000000100101100 &
b0000000100101100 '
b0000000100101100 (
b0000000100101100 )
b0000000100101100 *
b0000000100101100 +
#17
1#
#18
0#
b0000000110010000 &
b0000000110010000 '
b0000000110010000 (
b0000000110010000 )
b0000000110010000 *
b0000000110010000 +
#19
1#
#20
0#
b0000000111110100 &
b0000000111110100 '
b0000000111110100 (
b0000000111110100 )
b0000000111110100 *
b0000000111110100 +
#21
1#
#22
0#
b0000001001011000 &
b0000001001011000 '
b0000001001011000 (
b0000001001011000 )
b0000001001011000 *
b0000001001011000 +
#23
1#
#24
0#
b0000001010111100 &
b0000001010111100 '
b0000001010111100 (
b0000001010111100 )
b0000001010111100 *
b0000001010111100 +
#25
1#
#26
0#
b0000001100100000 &
b0000001100100000 '
b0000001100100000 (
b0000001100100000 )
b0000001100100000 *
b0000001100100000 +
#27
1#
#28
0#
b0000001110000100 &
b0000001110000100 '
b0000001110000100 (
b0000001110000100 )
b0000001110000100 *
b0000001110000100 +
#29
1#
#30
0#
b0000001111101000 &
b0000001111101000 '
b0000001111101000 (
b0000001111101000 )
b0000001111101000 *
b0000001111101000 +
#31
1#
#32
0#
b0000010001001100 &
b0000010001001100 '
b0000010001001100 (
b0000010001001100 )
b0000010001001100 *
b0000010001001100 +
#33
1#
#34
0#
b0000010010110000 &
b0000010010110000 '
b0000010010110000 (
b0000010010110000 )
b0000010010110000 *
b0000010010110000 +
#35
1#
#36
0#
b0000010100010100 &
b0000010100010100 '
b0000010100010100 (
b0000010100010100 )
b0000010100010100 *
b0000010100010100 +
#37
1#
#38
0#
b0000010101111000 &
b0000010101111000 '
b0000010101111000 (
b0000010101111000 )
b0000010101111000 *
b0000010101111000 +
#39
1#
#40
0#
b0000010111011100 &
b0000010111011100 '
b0000010111011100 (
b0000010111011100 )
b0000010111011100 *
b0000010111011100 +
#41
1#
#42
0#
b0000011001000000 &
b0000011001000000 '
b0000011001000000 (
b0000011001000000 )
b0000011001000000 *
b0000011001000000 +
#43
1#
#44
0#
b0000011010100100 &
b0000011010100100 '
b0000011010100100 (
b0000011010100100 )
b0000011010100100 *
b0000011010100100 +
#45
1#
#46
0#
b0000011100001000 &
b0000011100001000 '
b0000011100001000 (
b0000011100001000 )
b0000011100001000 *
b0000011100001000 +
#47
1#
#48
0#
b0000011101101100 &
b0000011101101100 '
b0000011101101100 (
b0000011101101100 )
b0000011101101100 *
b0000011101101100 +
#49
1#
#50
0#
b0000011111010000 &
b0000011111010000 '
b0000011111010000 (
b0000011111010000 )
b0000011111010000 *
b0000011111010000 +
#51
1#
#52
0#
b0000100000110100 &
b0000100000110100 '
b0000100000110100 (
b0000100000110100 )
b0000100000110100 *
b0000100000110100 +
#53
1#
#54
0#
b0000100010011000 &
b0000100010011000 '
b0000100010011000 (
b0000100010011000 )
b0000100010011000 *
b0000100010011000 +
#55
1#
#56
0#
b0000100011111100 &
b0000100011111100 '
b0000100011111100 (
b0000100011111100 )
b0000100011111100 *
b0000100011111100 +
#57
1#
#58
0#
b0000100101100000 &
b0000100101100000 '
b0000100101100000 (
b0000100101100000 )
b0000100101100000 *
b0000100101100000 +
#59
1#
#60
0#
b0000100111000100 &
b0000100111000100 '
b0000100111000100 (
b0000100111000100 )
b0000100111000100 *
b0000100111000100 +
#61
1#
#62
0#
b0000101000101000 &
b0000101000101000 '
b0000101000101000 (
b0000101000101000 )
b0000101000101000 *
b0000101000101000 +
#63
1#
#64
0#
b0000101010001100 &
b0000101010001100 '
b0000101010001100 (
b0000101010001100 )
b0000101010001100 *
b0000101010001100 +
#65
1#
#66
0#
b0000101011110000 &
b0000101011110000 '
b0000101011110000 (
b0000101011110000 )
b0000101011110000 *
b0000101011110000 +
#67
1#
#68
0#
b0000101101010100 &
b0000101101010100 '
b0000101101010100 (
b0000101101010100 )
b0000101101010100 *
b0000101101010100 +
#69
1#
#70
0#
b0000101110111000 &
b0000101110111000 '
b0000101110111000 (
b0000101110111000 )
b0000101110111000 *
b0000101110111000 +
#71
1#
#72
0#
b0000110000011100 &
b0000110000011100 '
b0000110000011100 (
b0000110000011100 )
b0000110000011100 *
b0000110000011100 +
#73
1#
#74
0#
b0000110010000000 &
b0000110010000000 '
b0000110010000000 (
b0000110010000000 )
b0000110010000000 *
b0000110010000000 +
#75
1#
#76
0#
b0000110011100100 &
b0000110011100100 '
b0000110011100100 (
b0000110011100100 )
b0000110011100100 *
b0000110011100100 +
#77
1#
#78
0#
b0000110101001000 &
b0000110101001000 '
b0000110101001000 (
b0000110101001000 )
b0000110101001000 *
b0000110101001000 +
#79
1#
#80
0#
b0000110110101100 &
b0000110110101100 '
b0000110110101100 (
b0000110110101100 )
b0000110110101100 *
b0000110110101100 +
#81
1#
#82
0#
b0000111000010000 &
b0000111000010000 '
b0000111000010000 (
b0000111000010000 )
b0000111000010000 *
b0000111000010000 +
#83
1#
#84
0#
b0000111001110100 &
b0000111001110100 '
b0000111001110100 (
b0000111001110100 )
b0000111001110100 *
b0000111001110100 +
#85
1#
#86
0#
b0000111011011000 &
b0000111011011000 '
b0000111011011000 (
b0000111011011000 )
b0000111011011000 *
b0000111011011000 +
#87
1#
#88
0#
b0000111100111100 &
b0000111100111100 '
b0000111100111100 (
b0000111100111100 )
b0000111100111100 *
b0000111100111100 +
#89
1#
#90
0#
b0000111110100000 &
b0000111110100000 '
b0000111110100000 (
b0000111110100000 )
b0000111110100000 *
b0000111110100000 +
#91
1#
#92
0#
b0001000000000100 &
b0001000000000100 '
b0001000000000100 (
b0001000000000100 )
b0001000000000100 *
b0001000000000100 +
#93
1#
#94
0#
b0001000001101000 &
b0001000001101000 '
b0001000001101000 (
b0001000001101000 )
b0001000001101000 *
b0001000001101000 +
#95
1#
#96
0#
b0001000011001100 &
b0001000011001100 '
b0001000011001100 (
b0001000011001100 )
b0001000011001100 *
b0001000011001100 +
#97
1#
#98
0#
b0001000100110000 &
b0001000100110000 '
b0001000100110000 (
b0001000100110000 )
b0001000100110000 *
b0001000100110000 +
#99
1#
#100
0#
b0001000110010100 &
b0001000110010100 '
b0001000110010100 (
b0001000110010100 )
b0001000110010100 *
b0001000110010100 +
#101
1#
#102
0#
b0001000111111000 &
b0001000111111000 '
b0001000111111000 (
b0001000111111000 )
b0001000111111000 *
b0001000111111000 +
#103
1#
#104
0#
b0001001001011100 &
b0001001001011100 '
b0001001001011100 (
b0001001001011100 )
b0001001001011100 *
b0001001001011100 +
#105
1#
#106
0#
b0001001011000000 &
b0001001011000000 '
b0001001011000000 (
b0001001011000000 )
b0001001011000000 *
b0001001011000000 +
#107
1#
#108
0#
b0001001100100100 &
b0001001100100100 '
b0001001100100100 (
b0001001100100100 )
b0001001100100100 *
b0001001100100100 +
#109
1#
#110
0#
b0001001110001000 &
b0001001110001000 '
b0001001110001000 (
b0001001110001000 )
b0001001110001000 *
b0001001110001000 +
#111
1#
#112
0#
b0001001111101100 &
b0001001111101100 '
b0001001111101100 (
b0001001111101100 )
b0001001111101100 *
b0001001111101100 +
#113
1#
#114
0#
b0001010001010000 &
b0001010001010000 '
b0001010001010000 (
b0001010001010000 )
b0001010001010000 *
b0001010001010000 +
#115
1#
#116
0#
b0001010010110100 &
b0001010010110100 '
b0001010010110100 (
b0001010010110100 )
b0001010010110100 *
b0001010010110100 +
#117
1#
#118
0#
b0001010100011000 &
b0001010100011000 '
b0001010100011000 (
b0001010100011000 )
b0001010100011000 *
b0001010100011000 +
#119
1#
#120
0#
b0001010101111100 &
b0001010101111100 '
b0001010101111100 (
b0001010101111100 )
b0001010101111100 *
b0001010101111100 +
#121
1#
#122
0#
b0001010111100000 &
b0001010111100000 '
b0001010111100000 (
b0001010111100000 )
b0001010111100000 *
b0001010111100000 +
#123
1#
#124
0#
b0001011001000100 &
b0001011001000100 '
b0001011001000100 (
b0001011001000100 )
b0001011001000100 *
b0001011001000100 +
#125
1#
#126
0#
b0001011010101000 &
b0001011010101000 '
b0001011010101000 (
b0001011010101000 )
b0001011010101000 *
b0001011010101000 +
#127
1#
#128
0#
b0001011100001100 &
b0001011100001100 '
b0001011100001100 (
b0001011100001100 )
b0001011100001100 *
b0001011100001100 +
#129
1#
#130
0#
b0001011101110000 &
b0001011101110000 '
b0001011101110000 (
b0001011101110000 )
b0001011101110000 *
b0001011101110000 +
#131
1#
#132
0#
b0001011111010100 &
b0001011111010100 '
b0001011111010100 (
b0001011111010100 )
b0001011111010100 *
b0001011111010100 +
#133
1#
#134
0#
b0001100000111000 &
b0001100000111000 '
b0001100000111000 (
b0001100000111000 )
b0001100000111000 *
b0001100000111000 +
#135
1#
#136
0#
b0001100010011100 &
b0001100010011100 '
b0001100010011100 (
b0001100010011100 )
b0001100010011100 *
b0001100010011100 +
#137
1#
#138
0#
b0001100100000000 &
b0001100100000000 '
b0001100100000000 (
b0001100100000000 )
b0001100100000000 *
b0001100100000000 +
#139
1#
#140
0#
b0001100101100100 &
b0001100101100100 '
b0001100101100100 (
b0001100101100100 )
b0001100101100100 *
b0001100101100100 +
#141
1#
#142
0#
b0001100111001000 &
b0001100111001000 '
b0001100111001000 (
b0001100111001000 )
b0001100111001000 *
b0001100111001000 +
#143
1#
#144
0#
b0001101000101100 &
b0001101000101100 '
b0001101000101100 (
b0001101000101100 )
b0001101000101100 *
b0001101000101100 +
#145
1#
#146
0#
b0001101010010000 &
b0001101010010000 '
b0001101010010000 (
b0001101010010000 )
b0001101010010000 *
b0001101010010000 +
#147
1#
#148
0#
b0001101011110100 &
b0001101011110100 '
b0001101011110100 (
b0001101011110100 )
b0001101011110100 *
b0001101011110100 +
#149
1#
#150
0#
b0001101101011000 &
b0001101101011000 '
b0001101101011000 (
b0001101101011000 )
b0001101101011000 *
b0001101101011000 +
#151
1#
#152
0#
b0001101110111100 &
b0001101110111100 '
b0001101110111100 (
b0001101110111100 )
b0001101110111100 *
b0001101110111100 +
#153
1#
#154
0#
b0001110000100000 &
b0001110000100000 '
b0001110000100000 (
b0001110000100000 )
b0001110000100000 *
b0001110000100000 +
#155
1#
#156
0#
b0001110010000100 &
b0001110010000100 '
b0001110010000100 (
b0001110010000100 )
b0001110010000100 *
b0001110010000100 +
#157
1#
#158
0#
b0001110011101000 &
b0001110011101000 '
b0001110011101000 (
b0001110011101000 )
b0001110011101000 *
b0001110011101000 +
#159
1#
#160
0#
b0001110101001100 &
b0001110101001100 '
b0001110101001100 (
b0001110101001100 )
b0001110101001100 *
b0001110101001100 +
#161
1#
#162
0#
b0001110110110000 &
b0001110110110000 '
b0001110110110000 (
b0001110110110000 )
b0001110110110000 *
b0001110110110000 +
#163
1#
#164
0#
b0001111000010100 &
b0001111000010100 '
b0001111000010100 (
b0001111000010100 )
b0001111000010100 *
b0001111000010100 +
#165
1#
#166
0#
b0001111001111000 &
b0001111001111000 '
b0001111001111000 (
b0001111001111000 )
b0001111001111000 *
b0001111001111000 +
#167
1#
#168
0#
b0001111011011100 &
b0001111011011100 '
b0001111011011100 (
b0001111011011100 )
b0001111011011100 *
b0001111011011100 +
#169
1#
#170
0#
b0001111101000000 &
b0001111101000000 '
b0001111101000000 (
b0001111101000000 )
b0001111101000000 *
b0001111101000000 +
#171
1#
#172
0#
b0001111110100100 &
b0001111110100100 '
b0001111110100100 (
b0001111110100100 )
b0001111110100100 *
b0001111110100100 +
#173
1#
#174
0#
b0010000000001000 &
b0010000000001000 '
b0010000000001000 (
b0010000000001000 )
b0010000000001000 *
b0010000000001000 +
#175
1#
#176
0#
b0010000001101100 &
b0010000001101100 '
b0010000001101100 (
b0010000001101100 )
b0010000001101100 *
b0010000001101100 +
#177
1#
#178
0#
b0010000011010000 &
b0010000011010000 '
b0010000011010000 (
b0010000011010000 )
b0010000011010000 *
b0010000011010000 +
#179
1#
#180
0#
b0010000100110100 &
b0010000100110100 '
b0010000100110100 (
b0010000100110100 )
b0010000100110100 *
b0010000100110100 +
#181
1#
#182
0#
b0010000110011000 &
b0010000110011000 '
b0010000110011000 (
b0010000110011000 )
b0010000110011000 *
b0010000110011000 +
#183
1#
#184
0#
b0010000111111100 &
b0010000111111100 '
b0010000111111100 (
b0010000111111100 )
b0010000111111100 *
b0010000111111100 +
#185
1#
#186
0#
b0010001001100000 &
b0010001001100000 '
b0010001001100000 (
b0010001001100000 )
b0010001001100000 *
b0010001001100000 +
#187
1#
#188
0#
b0010001011000100 &
b0010001011000100 '
b0010001011000100 (
b0010001011000100 )
b0010001011000100 *
b0010001011000100 +
#189
1#
#190
0#
b0010001100101000 &
b0010001100101000 '
b0010001100101000 (
b0010001100101000 )
b0010001100101000 *
b0010001100101000 +
#191
1#
#192
0#
b0010001110001100 &
b0010001110001100 '
b0010001110001100 (
b0010001110001100 )
b0010001110001100 *
b0010001110001100 +
#193
1#
#194
0#
b0010001111110000 &
b0010001111110000 '
b0010001111110000 (
b0010001111110000 )
b0010001111110000 *
b0010001111110000 +
#195
1#
#196
0#
b0010010001010100 &
b0010010001010100 '
b0010010001010100 (
b0010010001010100 )
b0010010001010100 *
b0010010001010100 +
#197
1#
#198
0#
b0010010010111000 &
b0010010010111000 '
b0010010010111000 (
b0010010010111000 )
b0010010010111000 *
b0010010010111000 +
#199
1#
#200
0#
b0010010100011100 &
b0010010100011100 '
b0010010100011100 (
b0010010100011100 )
b0010010100011100 *
b0010010100011100 +
#201
1#
#202
0#
b0010010110000000 &
b0010010110000000 '
b0010010110000000 (
b0010010110000000 )
b0010010110000000 *
b0010010110000000 +
#203
1#
#204
0#
b0010010111100100 &
b0010010111100100 '
b0010010111100100 (
b0010010111100100 )
b0010010111100100 *
b0010010111100100 +
#205
1#
#206
0#
b0010011001001000 &
b0010011001001000 '
b0010011001001000 (
b0010011001001000 )
b0010011001001000 *
b0010011001001000 +
#207
1#
#208
0#
b0010011010101100 &
b0010011010101100 '
b0010011010101100 (
b0010011010101100 )
b0010011010101100 *
b0010011010101100 +
#209
1#
#210
0#
b0010011100010000 &
b0010011100010000 '
b0010011100010000 (
b0010011100010000 )
b0010011100010000 *
b0010011100010000 +
#211
1#
#212
0#
b0010011101110100 &
b0010011101110100 '
b0010011101110100 (
b0010011101110100 )
b0010011101110100 *
b0010011101110100 +
#213
1#
#214
0#
b0010011111011000 &
b0010011111011000 '
b0010011111011000 (
b0010011111011000 )
b0010011111011000 *
b0010011111011000 +
#215
1#
#216
0#
b0010100000111100 &
b0010100000111100 '
b0010100000111100 (
b0010100000111100 )
b0010100000111100 *
b0010100000111100 +
#217
1#
#218
0#
b0010100010100000 &
b0010100010100000 '
b0010100010100000 (
b0010100010100000 )
b0010100010100000 *
b0010100010100000 +
#219
1#
#220
0#
b0010100100000100 &
b0010100100000100 '
b0010100100000100 (
b0010100100000100 )
b0010100100000100 *
b0010100100000100 +
#221
1#
#222
0#
b0010100101101000 &
b0010100101101000 '
b0010100101101000 (
b0010100101101000 )
b0010100101101000 *
b0010100101101000 +
#223
1#
#224
0#
b0010100111001100 &
b0010100111001100 '
b0010100111001100 (
b0010100111001100 )
b0010100111001100 *
b0010100111001100 +
#225
1#
#226
0#
b0010101000110000 &
b0010101000110000 '
b0010101000110000 (
b0010101000110000 )
b0010101000110000 *
b0010101000110000 +
#227
1#
#228
0#
b0010101010010100 &
b0010101010010100 '
b0010101010010100 (
b0010101010010100 )
b0010101010010100 *
b0010101010010100 +
#229
1#
#230
0#
b0010101011111000 &
b0010101011111000 '
b0010101011111000 (
b0010101011111000 )
b0010101011111000 *
b0010101011111000 +
#231
1#
#232
0#
b0010101101011100 &
b0010101101011100 '
b0010101101011100 (
b0010101101011100 )
b0010101101011100 *
b0010101101011100 +
#233
1#
#234
0#
b0010101111000000 &
b0010101111000000 '
b0010101111000000 (
b0010101111000000 )
b0010101111000000 *
b0010101111000000 +
#235
1#
#236
0#
b0010110000100100 &
b0010110000100100 '
b0010110000100100 (
b0010110000100100 )
b0010110000100100 *
b0010110000100100 +
#237
1#
#238
0#
b0010110010001000 &
b0010110010001000 '
b0010110010001000 (
b0010110010001000 )
b0010110010001000 *
b0010110010001000 +
#239
1#
#240
0#
b0010110011101100 &
b0010110011101100 '
b0010110011101100 (
b0010110011101100 )
b0010110011101100 *
b0010110011101100 +
#241
1#
#242
0#
b0010110101010000 &
b0010110101010000 '
b0010110101010000 (
b0010110101010000 )
b0010110101010000 *
b0010110101010000 +
#243
1#
#244
0#
b0010110110110100 &
b0010110110110100 '
b0010110110110100 (
b0010110110110100 )
b0010110110110100 *
b0010110110110100 +
#245
1#
#246
0#
b0010111000011000 &
b0010111000011000 '
b0010111000011000 (
b0010111000011000 )
b0010111000011000 *
b0010111000011000 +
#247
1#
#248
0#
b0010111001111100 &
b0010111001111100 '
b0010111001111100 (
b0010111001111100 )
b0010111001111100 *
b0010111001111100 +
#249
1#
#250
0#
b0010111011100000 &
b0010111011100000 '
b0010111011100000 (
b0010111011100000 )
b0010111011100000 *
b0010111011100000 +
#251
1#
#252
0#
b0010111101000100 &
b0010111101000100 '
b0010111101000100 (
b0010111101000100 )
b0010111101000100 *
b0010111101000100 +
#253
1#
#254
0#
b0010111110101000 &
b0010111110101000 '
b0010111110101000 (
b0010111110101000 )
b0010111110101000 *
b0010111110101000 +
#255
1#
#256
0#
b0011000000001100 &
b0011000000001100 '
b0011000000001100 (
b0011000000001100 )
b0011000000001100 *
b0011000000001100 +
#257
1#
#258
0#
b0011000001110000 &
b0011000001110000 '
b0011000001110000 (
b0011000001110000 )
b0011000001110000 *
b0011000001110000 +
#259
1#
#260
0#
b0011000011010100 &
b0011000011010100 '
b0011000011010100 (
b0011000011010100 )
b0011000011010100 *
b0011000011010100 +
#261
1#
#262
0#
b0011000100111000 &
b0011000100111000 '
b0011000100111000 (
b0011000100111000 )
b0011000100111000 *
b0011000100111000 +
#263
1#
#264
0#
b0011000110011100 &
b0011000110011100 '
b0011000110011100 (
b0011000110011100 )
b0011000110011100 *
b0011000110011100 +
#265
1#
#266
0#
b0011001000000000 &
b0011001000000000 '
b0011001000000000 (
b0011001000000000 )
b0011001000000000 *
b0011001000000000 +
#267
1#
#268
0#
b0011001001100100 &
b0011001001100100 '
b0011001001100100 (
b0011001001100100 )
b0011001001100100 *
b0011001001100100 +
#269
1#
#270
0#
b0011001011001000 &
b0011001011001000 '
b0011001011001000 (
b0011001011001000 )
b0011001011001000 *
b0011001011001000 +
#271
1#
#272
0#
b0011001100101100 &
b0011001100101100 '
b0011001100101100 (
b0011001100101100 )
b0011001100101100 *
b0011001100101100 +
#273
1#
#274
0#
b0011001110010000 &
b0011001110010000 '
b0011001110010000 (
b0011001110010000 )
b0011001110010000 *
b0011001110010000 +
#275
1#
#276
0#
b0011001111110100 &
b0011001111110100 '
b0011001111110100 (
b0011001111110100 )
b0011001111110100 *
b0011001111110100 +
#277
1#
#278
0#
b0011010001011000 &
b0011010001011000 '
b0011010001011000 (
b0011010001011000 )
b0011010001011000 *
b0011010001011000 +
#279
1#
#280
0#
b0011010010111100 &
b0011010010111100 '
b0011010010111100 (
b0011010010111100 )
b0011010010111100 *
b0011010010111100 +
#281
1#
#282
0#
b0011010100100000 &
b0011010100100000 '
b0011010100100000 (
b0011010100100000 )
b0011010100100000 *
b0011010100100000 +
#283
1#
#284
0#
b0011010110000100 &
b0011010110000100 '
b0011010110000100 (
b0011010110000100 )
b0011010110000100 *
b0011010110000100 +
#285
1#
#286
0#
b0011010111101000 &
b0011010111101000 '
b0011010111101000 (
b0011010111101000 )
b0011010111101000 *
b0011010111101000 +
#287
1#
#288
0#
b0011011001001100 &
b0011011001001100 '
b0011011001001100 (
b0011011001001100 )
b0011011001001100 *
b0011011001001100 +
#289
1#
#290
0#
b0011011010110000 &
b0011011010110000 '
b0011011010110000 (
b0011011010110000 )
b0011011010110000 *
b0011011010110000 +
#291
1#
#292
0#
b0011011100010100 &
b0011011100010100 '
b0011011100010100 (
b0011011100010100 )
b0011011100010100 *
b0011011100010100 +
#293
1#
#294
0#
b0011011101111000 &
b0011011101111000 '
b0011011101111000 (
b0011011101111000 )
b0011011101111000 *
b0011011101111000 +
#295
1#
#296
0#
b0011011111011100 &
b0011011111011100 '
b0011011111011100 (
b0011011111011100 )
b0011011111011100 *
b0011011111011100 +
#297
1#
#298
0#
b0011100001000000 &
b0011100001000000 '
b0011100001000000 (
b0011100001000000 )
b0011100001000000 *
b0011100001000000 +
#299
1#
#300
0#
b0011100010100100 &
b0011100010100100 '
b0011100010100100 (
b0011100010100100 )
b0011100010100100 *
b0011100010100100 +
#301
1#
#302
0#
b0011100100001000 &
b0011100100001000 '
b0011100100001000 (
b0011100100001000 )
b0011100100001000 *
b0011100100001000 +
#303
1#
#304
0#
b0011100101101100 &
b0011100101101100 '
b0011100101101100 (
b0011100101101100 )
b0011100101101100 *
b0011100101101100 +
#305
1#
#306
0#
b0011100111010000 &
b0011100111010000 '
b0011100111010000 (
b0011100111010000 )
b0011100111010000 *
b0011100111010000 +
#307
1#
#308
0#
b0011101000110100 &
b0011101000110100 '
b0011101000110100 (
b0011101000110100 )
b0011101000110100 *
b0011101000110100 +
#309
1#
#310
0#
b0011101010011000 &
b0011101010011000 '
b0011101010011000 (
b0011101010011000 )
b0011101010011000 *
b0011101010011000 +
#311
1#
#312
0#
b0011101011111100 &
b0011101011111100 '
b0011101011111100 (
b0011101011111100 )
b0011101011111100 *
b0011101011111100 +
#313
1#
#314
0#
b0011101101100000 &
b0011101101100000 '
b0011101101100000 (
b0011101101100000 )
b0011101101100000 *
b0011101101100000 +
#315
1#
#316
0#
b0011101111000100 &
b0011101111000100 '
b0011101111000100 (
b0011101111000100 )
b0011101111000100 *
b0011101111000100 +
#317
1#
#318
0#
b0011110000101000 &
b0011110000101000 '
b0011110000101000 (
b0011110000101000 )
b0011110000101000 *
b0011110000101000 +
#319
1#
#320
0#
b0011110010001100 &
b0011110010001100 '
b0011110010001100 (
b0011110010001100 )
b0011110010001100 *
b0011110010001100 +
#321
1#
#322
0#
b0011110011110000 &
b0011110011110000 '
b0011110011110000 (
b0011110011110000 )
b0011110011110000 *
b0011110011110000 +
#323
1#
#324
0#
b0011110101010100 &
b0011110101010100 '
b0011110101010100 (
b0011110101010100 )
b0011110101010100 *
b0011110101010100 +
#325
1#
#326
0#
b0011110110111000 &
b0011110110111000 '
b0011110110111000 (
b0011110110111000 )
b0011110110111000 *
b0011110110111000 +
#327
1#
#328
0#
b0011111000011100 &
b0011111000011100 '
b0011111000011100 (
b0011111000011100 )
b0011111000011100 *
b0011111000011100 +
#329
1#
#330
0#
b0011111010000000 &
b0011111010000000 '
b0011111010000000 (
b0011111010000000 )
b0011111010000000 *
b0011111010000000 +
#331
1#
#332
0#
b0011111011100100 &
b0011111011100100 '
b0011111011100100 (
b0011111011100100 )
b0011111011100100 *
b0011111011100100 +
#333
1#
#334
0#
b0011111101001000 &
b0011111101001000 '
b0011111101001000 (
b0011111101001000 )
b0011111101001000 *
b0011111101001000 +
#335
1#
#336
0#
b0011111110101100 &
b0011111110101100 '
b0011111110101100 (
b0011111110101100 )
b0011111110101100 *
b0011111110101100 +
#337
1#
#338
0#
b0100000000010000 &
b0100000000010000 '
b0100000000010000 (
b0100000000010000 )
b0100000000010000 *
b0100000000010000 +
#339
1#
#340
0#
b0100000001110100 &
b0100000001110100 '
b0100000001110100 (
b0100000001110100 )
b0100000001110100 *
b0100000001110100 +
#341
1#
#342
0#
b0100000011011000 &
b0100000011011000 '
b0100000011011000 (
b0100000011011000 )
b0100000011011000 *
b0100000011011000 +
#343
1#
#344
0#
b0100000100111100 &
b0100000100111100 '
b0100000100111100 (
b0100000100111100 )
b0100000100111100 *
b0100000100111100 +
#345
1#
#346
0#
b0100000110100000 &
b0100000110100000 '
b0100000110100000 (
b0100000110100000 )
b0100000110100000 *
b0100000110100000 +
#347
1#
#348
0#
b0100001000000100 &
b0100001000000100 '
b0100001000000100 (
b0100001000000100 )
b0100001000000100 *
b0100001000000100 +
#349
1#
#350
0#
b0100001001101000 &
b0100001001101000 '
b0100001001101000 (
b0100001001101000 )
b0100001001101000 *
b0100001001101000 +
#351
1#
#352
0#
b0100001011001100 &
b0100001011001100 '
b0100001011001100 (
b0100001011001100 )
b0100001011001100 *
b0100001011001100 +
#353
1#
#354
0#
b0100001100110000 &
b0100001100110000 '
b0100001100110000 (
b0100001100110000 )
b0100001100110000 *
b0100001100110000 +
#355
1#
#356
0#
b0100001110010100 &
b0100001110010100 '
b0100001110010100 (
b0100001110010100 )
b0100001110010100 *
b0100001110010100 +
#357
1#
#358
0#
b0100001111111000 &
b0100001111111000 '
b0100001111111000 (
b0100001111111000 )
b0100001111111000 *
b0100001111111000 +
#359
1#
#360
0#
b0100010001011100 &
b0100010001011100 '
b0100010001011100 (
b0100010001011100 )
b0100010001011100 *
b0100010001011100 +
#361
1#
#362
0#
b0100010011000000 &
b0100010011000000 '
b0100010011000000 (
b0100010011000000 )
b0100010011000000 *
b0100010011000000 +
#363
1#
#364
0#
b0100010100100100 &
b0100010100100100 '
b0100010100100100 (
b0100010100100100 )
b0100010100100100 *
b0100010100100100 +
#365
1#
#366
0#
b0100010110001000 &
b0100010110001000 '
b0100010110001000 (
b0100010110001000 )
b0100010110001000 *
b0100010110001000 +
#367
1#
#368
0#
b0100010111101100 &
b0100010111101100 '
b0100010111101100 (
b0100010111101100 )
b0100010111101100 *
b0100010111101100 +
#369
1#
#370
0#
b0100011001010000 &
b0100011001010000 '
b0100011001010000 (
b0100011001010000 )
b0100011001010000 *
b0100011001010000 +
#371
1#
#372
0#
b0100011010110100 &
b0100011010110100 '
b0100011010110100 (
b0100011010110100 )
b0100011010110100 *
b0100011010110100 +
#373
1#
#374
0#
b0100011100011000 &
b0100011100011000 '
b0100011100011000 (
b0100011100011000 )
b0100011100011000 *
b0100011100011000 +
#375
1#
#376
0#
b0100011101111100 &
b0100011101111100 '
b0100011101111100 (
b0100011101111100 )
b0100011101111100 *
b0100011101111100 +
#377
1#
#378
0#
b0100011111100000 &
b0100011111100000 '
b0100011111100000 (
b0100011111100000 )
b0100011111100000 *
b0100011111100000 +
#379
1#
#380
0#
b0100100001000100 &
b0100100001000100 '
b0100100001000100 (
b0100100001000100 )
b0100100001000100 *
b0100100001000100 +
#381
1#
#382
0#
b0100100010101000 &
b0100100010101000 '
b0100100010101000 (
b0100100010101000 )
b0100100010101000 *
b0100100010101000 +
#383
1#
#384
0#
b0100100100001100 &
b0100100100001100 '
b0100100100001100 (
b0100100100001100 )
b0100100100001100 *
b0100100100001100 +
#385
1#
#386
0#
b0100100101110000 &
b0100100101110000 '
b0100100101110000 (
b0100100101110000 )
b0100100101110000 *
b0100100101110000 +
#387
1#
#388
0#
b0100100111010100 &
b0100100111010100 '
b0100100111010100 (
b0100100111010100 )
b0100100111010100 *
b0100100111010100 +
#389
1#
#390
0#
b0100101000111000 &
b0100101000111000 '
b0100101000111000 (
b0100101000111000 )
b0100101000111000 *
b0100101000111000 +
#391
1#
#392
0#
b0100101010011100 &
b0100101010011100 '
b0100101010011100 (
b0100101010011100 )
b0100101010011100 *
b0100101010011100 +
#393
1#
#394
0#
b0100101100000000 &
b0100101100000000 '
b0100101100000000 (
b0100101100000000 )
b0100101100000000 *
b0100101100000000 +
#395
1#
#396
0#
b0100101101100100 &
b0100101101100100 '
b0100101101100100 (
b0100101101100100 )
b0100101101100100 *
b0100101101100100 +
#397
1#
#398
0#
b0100101111001000 &
b0100101111001000 '
b0100101111001000 (
b0100101111001000 )
b0100101111001000 *
b0100101111001000 +
#399
1#
#400
0#
b0100110000101100 &
b0100110000101100 '
b0100110000101100 (
b0100110000101100 )
b0100110000101100 *
b0100110000101100 +
#401
1#
#402
0#
b0100110010010000 &
b0100110010010000 '
b0100110010010000 (
b0100110010010000 )
b0100110010010000 *
b0100110010010000 +
#403
1#
#404
0#
b0100110011110100 &
b0100110011110100 '
b0100110011110100 (
b0100110011110100 )
b0100110011110100 *
b0100110011110100 +
#405
1#
#406
0#
b0100110101011000 &
b0100110101011000 '
b0100110101011000 (
b0100110101011000 )
b0100110101011000 *
b0100110101011000 +
#407
1#
#408
0#
b0100110110111100 &
b0100110110111100 '
b0100110110111100 (
b0100110110111100 )
b0100110110111100 *
b0100110110111100 +
#409
1#
